ISO-10303-21;
HEADER;
/* Generated by software containing ST-Developer
 * from STEP Tools, Inc. (www.steptools.com) 
 */

FILE_DESCRIPTION(
/* description */ (''),
/* implementation_level */ '2;1');

FILE_NAME(
/* name */ 'C:\\Users\\JedrzejKozuch\\Desktop\\optimal BC\\Part14.stp',

/* time_stamp */ '2022-09-19T14:23:35+02:00',
/* author */ ('JedrzejKozuch'),
/* organization */ (''),
/* preprocessor_version */ 'ST-DEVELOPER v19',
/* originating_system */ 'Autodesk Inventor 2023',
/* authorisation */ '');

FILE_SCHEMA (('AUTOMOTIVE_DESIGN { 1 0 10303 214 3 1 1 }'));
ENDSEC;

DATA;
#10=MECHANICAL_DESIGN_GEOMETRIC_PRESENTATION_REPRESENTATION('',(#13),#230);
#11=SHAPE_REPRESENTATION_RELATIONSHIP('SRR','None',#241,#12);
#12=ADVANCED_BREP_SHAPE_REPRESENTATION('',(#14),#229);
#13=STYLED_ITEM('',(#250),#14);
#14=MANIFOLD_SOLID_BREP('Solid1',#122);
#15=CIRCLE('',#147,1.752237406135);
#16=CIRCLE('',#148,1.752237406135);
#17=CIRCLE('',#150,3.89509040905758);
#18=CIRCLE('',#151,3.89509040905758);
#19=CIRCLE('',#153,2.2401925863192);
#20=CIRCLE('',#154,2.2401925863192);
#21=CYLINDRICAL_SURFACE('',#146,1.752237406135);
#22=CYLINDRICAL_SURFACE('',#149,3.89509040905758);
#23=CYLINDRICAL_SURFACE('',#152,2.2401925863192);
#24=FACE_OUTER_BOUND('',#31,.T.);
#25=FACE_OUTER_BOUND('',#32,.T.);
#26=FACE_OUTER_BOUND('',#33,.T.);
#27=FACE_OUTER_BOUND('',#34,.T.);
#28=FACE_OUTER_BOUND('',#35,.T.);
#29=FACE_OUTER_BOUND('',#36,.T.);
#30=FACE_OUTER_BOUND('',#37,.T.);
#31=EDGE_LOOP('',(#81,#82,#83,#84));
#32=EDGE_LOOP('',(#85,#86,#87,#88));
#33=EDGE_LOOP('',(#89,#90,#91,#92));
#34=EDGE_LOOP('',(#93,#94,#95,#96));
#35=EDGE_LOOP('',(#97,#98,#99,#100));
#36=EDGE_LOOP('',(#101,#102,#103,#104,#105));
#37=EDGE_LOOP('',(#106,#107,#108,#109,#110));
#38=LINE('',#198,#47);
#39=LINE('',#200,#48);
#40=LINE('',#202,#49);
#41=LINE('',#203,#50);
#42=LINE('',#206,#51);
#43=LINE('',#208,#52);
#44=LINE('',#209,#53);
#45=LINE('',#215,#54);
#46=LINE('',#221,#55);
#47=VECTOR('',#161,0.393700787401575);
#48=VECTOR('',#162,0.393700787401575);
#49=VECTOR('',#163,0.393700787401575);
#50=VECTOR('',#164,0.393700787401575);
#51=VECTOR('',#167,0.393700787401575);
#52=VECTOR('',#168,0.393700787401575);
#53=VECTOR('',#169,0.393700787401575);
#54=VECTOR('',#176,0.393700787401575);
#55=VECTOR('',#183,0.393700787401575);
#56=VERTEX_POINT('',#196);
#57=VERTEX_POINT('',#197);
#58=VERTEX_POINT('',#199);
#59=VERTEX_POINT('',#201);
#60=VERTEX_POINT('',#205);
#61=VERTEX_POINT('',#207);
#62=VERTEX_POINT('',#211);
#63=VERTEX_POINT('',#213);
#64=VERTEX_POINT('',#217);
#65=VERTEX_POINT('',#219);
#66=EDGE_CURVE('',#56,#57,#38,.T.);
#67=EDGE_CURVE('',#57,#58,#39,.T.);
#68=EDGE_CURVE('',#59,#58,#40,.T.);
#69=EDGE_CURVE('',#56,#59,#41,.T.);
#70=EDGE_CURVE('',#60,#56,#42,.T.);
#71=EDGE_CURVE('',#61,#59,#43,.T.);
#72=EDGE_CURVE('',#60,#61,#44,.T.);
#73=EDGE_CURVE('',#62,#60,#15,.T.);
#74=EDGE_CURVE('',#63,#61,#16,.T.);
#75=EDGE_CURVE('',#62,#63,#45,.T.);
#76=EDGE_CURVE('',#64,#62,#17,.T.);
#77=EDGE_CURVE('',#65,#63,#18,.T.);
#78=EDGE_CURVE('',#64,#65,#46,.T.);
#79=EDGE_CURVE('',#57,#64,#19,.T.);
#80=EDGE_CURVE('',#58,#65,#20,.T.);
#81=ORIENTED_EDGE('',*,*,#66,.T.);
#82=ORIENTED_EDGE('',*,*,#67,.T.);
#83=ORIENTED_EDGE('',*,*,#68,.F.);
#84=ORIENTED_EDGE('',*,*,#69,.F.);
#85=ORIENTED_EDGE('',*,*,#70,.T.);
#86=ORIENTED_EDGE('',*,*,#69,.T.);
#87=ORIENTED_EDGE('',*,*,#71,.F.);
#88=ORIENTED_EDGE('',*,*,#72,.F.);
#89=ORIENTED_EDGE('',*,*,#73,.T.);
#90=ORIENTED_EDGE('',*,*,#72,.T.);
#91=ORIENTED_EDGE('',*,*,#74,.F.);
#92=ORIENTED_EDGE('',*,*,#75,.F.);
#93=ORIENTED_EDGE('',*,*,#76,.T.);
#94=ORIENTED_EDGE('',*,*,#75,.T.);
#95=ORIENTED_EDGE('',*,*,#77,.F.);
#96=ORIENTED_EDGE('',*,*,#78,.F.);
#97=ORIENTED_EDGE('',*,*,#79,.T.);
#98=ORIENTED_EDGE('',*,*,#78,.T.);
#99=ORIENTED_EDGE('',*,*,#80,.F.);
#100=ORIENTED_EDGE('',*,*,#67,.F.);
#101=ORIENTED_EDGE('',*,*,#80,.T.);
#102=ORIENTED_EDGE('',*,*,#77,.T.);
#103=ORIENTED_EDGE('',*,*,#74,.T.);
#104=ORIENTED_EDGE('',*,*,#71,.T.);
#105=ORIENTED_EDGE('',*,*,#68,.T.);
#106=ORIENTED_EDGE('',*,*,#79,.F.);
#107=ORIENTED_EDGE('',*,*,#66,.F.);
#108=ORIENTED_EDGE('',*,*,#70,.F.);
#109=ORIENTED_EDGE('',*,*,#73,.F.);
#110=ORIENTED_EDGE('',*,*,#76,.F.);
#111=PLANE('',#144);
#112=PLANE('',#145);
#113=PLANE('',#155);
#114=PLANE('',#156);
#115=ADVANCED_FACE('',(#24),#111,.T.);
#116=ADVANCED_FACE('',(#25),#112,.T.);
#117=ADVANCED_FACE('',(#26),#21,.T.);
#118=ADVANCED_FACE('',(#27),#22,.T.);
#119=ADVANCED_FACE('',(#28),#23,.T.);
#120=ADVANCED_FACE('',(#29),#113,.T.);
#121=ADVANCED_FACE('',(#30),#114,.F.);
#122=CLOSED_SHELL('',(#115,#116,#117,#118,#119,#120,#121));
#123=DERIVED_UNIT_ELEMENT(#125,1.);
#124=DERIVED_UNIT_ELEMENT(#235,-3.);
#125=(
CONVERSION_BASED_UNIT('gram',#127)
MASS_UNIT()
NAMED_UNIT(#232)
);
#126=(
MASS_UNIT()
NAMED_UNIT(*)
SI_UNIT(.KILO.,.GRAM.)
);
#127=MASS_MEASURE_WITH_UNIT(MASS_MEASURE(0.001),#126);
#128=DERIVED_UNIT((#123,#124));
#129=MEASURE_REPRESENTATION_ITEM('density measure',
POSITIVE_RATIO_MEASURE(1.),#128);
#130=PROPERTY_DEFINITION_REPRESENTATION(#135,#132);
#131=PROPERTY_DEFINITION_REPRESENTATION(#136,#133);
#132=REPRESENTATION('material name',(#134),#229);
#133=REPRESENTATION('density',(#129),#229);
#134=DESCRIPTIVE_REPRESENTATION_ITEM('Generic','Generic');
#135=PROPERTY_DEFINITION('material property','material name',#243);
#136=PROPERTY_DEFINITION('material property','density of part',#243);
#137=DATE_TIME_ROLE('creation_date');
#138=APPLIED_DATE_AND_TIME_ASSIGNMENT(#139,#137,(#243));
#139=DATE_AND_TIME(#140,#141);
#140=CALENDAR_DATE(2022,19,9);
#141=LOCAL_TIME(0,0,0.,#142);
#142=COORDINATED_UNIVERSAL_TIME_OFFSET(0,0,.BEHIND.);
#143=AXIS2_PLACEMENT_3D('placement',#194,#157,#158);
#144=AXIS2_PLACEMENT_3D('',#195,#159,#160);
#145=AXIS2_PLACEMENT_3D('',#204,#165,#166);
#146=AXIS2_PLACEMENT_3D('',#210,#170,#171);
#147=AXIS2_PLACEMENT_3D('',#212,#172,#173);
#148=AXIS2_PLACEMENT_3D('',#214,#174,#175);
#149=AXIS2_PLACEMENT_3D('',#216,#177,#178);
#150=AXIS2_PLACEMENT_3D('',#218,#179,#180);
#151=AXIS2_PLACEMENT_3D('',#220,#181,#182);
#152=AXIS2_PLACEMENT_3D('',#222,#184,#185);
#153=AXIS2_PLACEMENT_3D('',#223,#186,#187);
#154=AXIS2_PLACEMENT_3D('',#224,#188,#189);
#155=AXIS2_PLACEMENT_3D('',#225,#190,#191);
#156=AXIS2_PLACEMENT_3D('',#226,#192,#193);
#157=DIRECTION('axis',(0.,0.,1.));
#158=DIRECTION('refdir',(1.,0.,0.));
#159=DIRECTION('center_axis',(-0.980725416465922,0.195391037403828,0.));
#160=DIRECTION('ref_axis',(-0.195391037403828,-0.980725416465922,0.));
#161=DIRECTION('',(-0.195391037403828,-0.980725416465922,0.));
#162=DIRECTION('',(0.,0.,1.));
#163=DIRECTION('',(-0.195391037403828,-0.980725416465922,0.));
#164=DIRECTION('',(0.,0.,1.));
#165=DIRECTION('center_axis',(0.977035435809284,0.213076880897393,0.));
#166=DIRECTION('ref_axis',(-0.213076880897393,0.977035435809284,0.));
#167=DIRECTION('',(-0.213076880897393,0.977035435809284,0.));
#168=DIRECTION('',(-0.213076880897393,0.977035435809284,0.));
#169=DIRECTION('',(0.,0.,1.));
#170=DIRECTION('center_axis',(0.,0.,1.));
#171=DIRECTION('ref_axis',(0.775885514591094,0.630873733997314,0.));
#172=DIRECTION('center_axis',(0.,0.,1.));
#173=DIRECTION('ref_axis',(0.598278762768087,-0.80128803935956,0.));
#174=DIRECTION('center_axis',(0.,0.,1.));
#175=DIRECTION('ref_axis',(0.598278762768087,-0.80128803935956,0.));
#176=DIRECTION('',(0.,0.,1.));
#177=DIRECTION('center_axis',(0.,0.,1.));
#178=DIRECTION('ref_axis',(0.0116571639043395,-0.999932052956453,0.));
#179=DIRECTION('center_axis',(0.,0.,1.));
#180=DIRECTION('ref_axis',(0.0116571639043395,-0.999932052956453,0.));
#181=DIRECTION('center_axis',(0.,0.,1.));
#182=DIRECTION('ref_axis',(0.0116571639043395,-0.999932052956453,0.));
#183=DIRECTION('',(0.,0.,1.));
#184=DIRECTION('center_axis',(0.,0.,1.));
#185=DIRECTION('ref_axis',(-0.711283097204017,0.702905652013029,0.));
#186=DIRECTION('center_axis',(0.,0.,1.));
#187=DIRECTION('ref_axis',(-0.711283097204017,0.702905652013029,0.));
#188=DIRECTION('center_axis',(0.,0.,1.));
#189=DIRECTION('ref_axis',(-0.711283097204017,0.702905652013029,0.));
#190=DIRECTION('center_axis',(0.,0.,1.));
#191=DIRECTION('ref_axis',(1.,0.,0.));
#192=DIRECTION('center_axis',(0.,0.,1.));
#193=DIRECTION('ref_axis',(1.,0.,0.));
#194=CARTESIAN_POINT('',(0.,0.,0.));
#195=CARTESIAN_POINT('Origin',(-0.676345732754261,6.10411665160858,0.));
#196=CARTESIAN_POINT('',(-0.676345732754261,6.10411665160858,0.));
#197=CARTESIAN_POINT('',(-1.59713131356516,1.48242143868941,0.));
#198=CARTESIAN_POINT('',(-0.676345732754261,6.10411665160858,0.));
#199=CARTESIAN_POINT('',(-1.59713131356516,1.48242143868941,0.0625));
#200=CARTESIAN_POINT('',(-1.59713131356516,1.48242143868941,0.));
#201=CARTESIAN_POINT('',(-0.676345732754261,6.10411665160858,0.0625));
#202=CARTESIAN_POINT('',(-0.676345732754261,6.10411665160858,0.0625));
#203=CARTESIAN_POINT('',(-0.676345732754261,6.10411665160858,0.));
#204=CARTESIAN_POINT('Origin',(-0.135122587461691,3.62241056785172,0.));
#205=CARTESIAN_POINT('',(-0.135122587461691,3.62241056785172,0.));
#206=CARTESIAN_POINT('',(-0.135122587461691,3.62241056785172,0.));
#207=CARTESIAN_POINT('',(-0.135122587461691,3.62241056785172,0.0625));
#208=CARTESIAN_POINT('',(-0.135122587461691,3.62241056785172,0.0625));
#209=CARTESIAN_POINT('',(-0.135122587461691,3.62241056785172,0.));
#210=CARTESIAN_POINT('Origin',(1.02554431223348,2.30970790715101,0.));
#211=CARTESIAN_POINT('',(2.07387073965189,0.905661031496616,0.));
#212=CARTESIAN_POINT('Origin',(1.02554431223348,2.30970790715101,0.));
#213=CARTESIAN_POINT('',(2.07387073965189,0.905661031496616,0.0625));
#214=CARTESIAN_POINT('Origin',(1.02554431223348,2.30970790715101,0.0625));
#215=CARTESIAN_POINT('',(2.07387073965189,0.905661031496616,0.));
#216=CARTESIAN_POINT('Origin',(-1.60356672308091,2.18947682919568,0.));
#217=CARTESIAN_POINT('',(-1.55816101576031,-1.70534891998427,0.));
#218=CARTESIAN_POINT('Origin',(-1.60356672308091,2.18947682919568,0.));
#219=CARTESIAN_POINT('',(-1.55816101576031,-1.70534891998427,0.0625));
#220=CARTESIAN_POINT('Origin',(-1.60356672308091,2.18947682919568,0.0625));
#221=CARTESIAN_POINT('',(-1.55816101576031,-1.70534891998427,0.));
#222=CARTESIAN_POINT('Origin',(-0.00372019243456711,-0.0922225918320408,
0.));
#223=CARTESIAN_POINT('Origin',(-0.00372019243456711,-0.0922225918320408,
0.));
#224=CARTESIAN_POINT('Origin',(-0.00372019243456711,-0.0922225918320408,
0.0625));
#225=CARTESIAN_POINT('Origin',(0.266934469807361,2.19938386581216,0.0625));
#226=CARTESIAN_POINT('Origin',(0.266934469807361,2.19938386581216,0.));
#227=UNCERTAINTY_MEASURE_WITH_UNIT(LENGTH_MEASURE(0.000393700787401575),
#233,'DISTANCE_ACCURACY_VALUE',
'Maximum model space distance between geometric entities at asserted c
onnectivities');
#228=UNCERTAINTY_MEASURE_WITH_UNIT(LENGTH_MEASURE(0.000393700787401575),
#233,'DISTANCE_ACCURACY_VALUE',
'Maximum model space distance between geometric entities at asserted c
onnectivities');
#229=(
GEOMETRIC_REPRESENTATION_CONTEXT(3)
GLOBAL_UNCERTAINTY_ASSIGNED_CONTEXT((#227))
GLOBAL_UNIT_ASSIGNED_CONTEXT((#233,#237,#238))
REPRESENTATION_CONTEXT('','3D')
);
#230=(
GEOMETRIC_REPRESENTATION_CONTEXT(3)
GLOBAL_UNCERTAINTY_ASSIGNED_CONTEXT((#228))
GLOBAL_UNIT_ASSIGNED_CONTEXT((#233,#237,#238))
REPRESENTATION_CONTEXT('','3D')
);
#231=DIMENSIONAL_EXPONENTS(1.,0.,0.,0.,0.,0.,0.);
#232=DIMENSIONAL_EXPONENTS(1.,0.,0.,0.,0.,0.,0.);
#233=(
CONVERSION_BASED_UNIT('inch',#236)
LENGTH_UNIT()
NAMED_UNIT(#231)
);
#234=(
LENGTH_UNIT()
NAMED_UNIT(*)
SI_UNIT(.MILLI.,.METRE.)
);
#235=(
LENGTH_UNIT()
NAMED_UNIT(*)
SI_UNIT(.CENTI.,.METRE.)
);
#236=LENGTH_MEASURE_WITH_UNIT(LENGTH_MEASURE(25.4),#234);
#237=(
NAMED_UNIT(*)
PLANE_ANGLE_UNIT()
SI_UNIT($,.RADIAN.)
);
#238=(
NAMED_UNIT(*)
SI_UNIT($,.STERADIAN.)
SOLID_ANGLE_UNIT()
);
#239=SHAPE_DEFINITION_REPRESENTATION(#240,#241);
#240=PRODUCT_DEFINITION_SHAPE('',$,#243);
#241=SHAPE_REPRESENTATION('',(#143),#229);
#242=PRODUCT_DEFINITION_CONTEXT('part definition',#247,'design');
#243=PRODUCT_DEFINITION('Part2','Part2',#244,#242);
#244=PRODUCT_DEFINITION_FORMATION('',$,#249);
#245=PRODUCT_RELATED_PRODUCT_CATEGORY('Part2','Part2',(#249));
#246=APPLICATION_PROTOCOL_DEFINITION('international standard',
'automotive_design',2009,#247);
#247=APPLICATION_CONTEXT(
'Core Data for Automotive Mechanical Design Process');
#248=PRODUCT_CONTEXT('part definition',#247,'mechanical');
#249=PRODUCT('Part2','Part2',$,(#248));
#250=PRESENTATION_STYLE_ASSIGNMENT((#251));
#251=SURFACE_STYLE_USAGE(.BOTH.,#254);
#252=SURFACE_STYLE_RENDERING_WITH_PROPERTIES($,#258,(#253));
#253=SURFACE_STYLE_TRANSPARENT(0.);
#254=SURFACE_SIDE_STYLE('',(#255,#252));
#255=SURFACE_STYLE_FILL_AREA(#256);
#256=FILL_AREA_STYLE('',(#257));
#257=FILL_AREA_STYLE_COLOUR('',#258);
#258=COLOUR_RGB('',0.749019607843137,0.749019607843137,0.749019607843137);
ENDSEC;
END-ISO-10303-21;
