ISO-10303-21;
HEADER;
/* Generated by software containing ST-Developer
 * from STEP Tools, Inc. (www.steptools.com) 
 */

FILE_DESCRIPTION(
/* description */ (''),
/* implementation_level */ '2;1');

FILE_NAME(
/* name */ 
'C:\\Users\\pschwitalla\\OneDrive - igus GmbH\\Documents\\190520_Platt
form Tribocut\\01_Instant Quoting\\L\X\D6SUNGEN\\Oroox\\03_CNC calcula
tion\\40_Calculations\\Pockets\\OPEN POCKET_01_WITH Bound. walls, NO I
nt. fillets - 03.stp',
/* time_stamp */ '2022-03-24T15:51:53+01:00',
/* author */ ('pschwitalla'),
/* organization */ ('igus GmbH'),
/* preprocessor_version */ 'ST-DEVELOPER v18.1',
/* originating_system */ 'Autodesk Inventor 2020',
/* authorisation */ '');

FILE_SCHEMA (('AUTOMOTIVE_DESIGN { 1 0 10303 214 3 1 1 }'));
ENDSEC;

DATA;
#10=MECHANICAL_DESIGN_GEOMETRIC_PRESENTATION_REPRESENTATION('',(#13),#319);
#11=SHAPE_REPRESENTATION_RELATIONSHIP('SRR','None',#326,#12);
#12=ADVANCED_BREP_SHAPE_REPRESENTATION('',(#14),#318);
#13=STYLED_ITEM('',(#335),#14);
#14=MANIFOLD_SOLID_BREP('Solid1',#187);
#15=PLANE('',#207);
#16=PLANE('',#208);
#17=PLANE('',#209);
#18=PLANE('',#210);
#19=PLANE('',#211);
#20=PLANE('',#212);
#21=PLANE('',#213);
#22=PLANE('',#214);
#23=FACE_OUTER_BOUND('',#33,.T.);
#24=FACE_OUTER_BOUND('',#34,.T.);
#25=FACE_OUTER_BOUND('',#35,.T.);
#26=FACE_OUTER_BOUND('',#36,.T.);
#27=FACE_OUTER_BOUND('',#37,.T.);
#28=FACE_OUTER_BOUND('',#38,.T.);
#29=FACE_OUTER_BOUND('',#39,.T.);
#30=FACE_OUTER_BOUND('',#40,.T.);
#31=FACE_OUTER_BOUND('',#41,.T.);
#32=FACE_OUTER_BOUND('',#42,.T.);
#33=EDGE_LOOP('',(#127,#128,#129,#130));
#34=EDGE_LOOP('',(#131,#132,#133,#134));
#35=EDGE_LOOP('',(#135,#136,#137,#138));
#36=EDGE_LOOP('',(#139,#140,#141,#142));
#37=EDGE_LOOP('',(#143,#144,#145,#146));
#38=EDGE_LOOP('',(#147,#148,#149,#150,#151,#152,#153,#154));
#39=EDGE_LOOP('',(#155,#156,#157,#158));
#40=EDGE_LOOP('',(#159,#160,#161,#162,#163,#164,#165,#166));
#41=EDGE_LOOP('',(#167,#168,#169,#170));
#42=EDGE_LOOP('',(#171,#172,#173,#174));
#43=LINE('',#271,#63);
#44=LINE('',#274,#64);
#45=LINE('',#280,#65);
#46=LINE('',#283,#66);
#47=LINE('',#285,#67);
#48=LINE('',#286,#68);
#49=LINE('',#289,#69);
#50=LINE('',#291,#70);
#51=LINE('',#292,#71);
#52=LINE('',#295,#72);
#53=LINE('',#297,#73);
#54=LINE('',#298,#74);
#55=LINE('',#301,#75);
#56=LINE('',#303,#76);
#57=LINE('',#304,#77);
#58=LINE('',#307,#78);
#59=LINE('',#308,#79);
#60=LINE('',#311,#80);
#61=LINE('',#312,#81);
#62=LINE('',#314,#82);
#63=VECTOR('',#221,10.);
#64=VECTOR('',#224,10.);
#65=VECTOR('',#229,10.);
#66=VECTOR('',#232,10.);
#67=VECTOR('',#235,10.);
#68=VECTOR('',#236,10.);
#69=VECTOR('',#239,10.);
#70=VECTOR('',#240,10.);
#71=VECTOR('',#241,10.);
#72=VECTOR('',#244,10.);
#73=VECTOR('',#245,10.);
#74=VECTOR('',#246,10.);
#75=VECTOR('',#249,10.);
#76=VECTOR('',#250,10.);
#77=VECTOR('',#251,10.);
#78=VECTOR('',#254,10.);
#79=VECTOR('',#255,10.);
#80=VECTOR('',#258,10.);
#81=VECTOR('',#259,10.);
#82=VECTOR('',#262,10.);
#83=CIRCLE('',#202,7.5);
#84=CIRCLE('',#203,7.5);
#85=CIRCLE('',#205,7.5);
#86=CIRCLE('',#206,7.5);
#87=VERTEX_POINT('',#267);
#88=VERTEX_POINT('',#268);
#89=VERTEX_POINT('',#270);
#90=VERTEX_POINT('',#272);
#91=VERTEX_POINT('',#276);
#92=VERTEX_POINT('',#277);
#93=VERTEX_POINT('',#279);
#94=VERTEX_POINT('',#281);
#95=VERTEX_POINT('',#288);
#96=VERTEX_POINT('',#290);
#97=VERTEX_POINT('',#294);
#98=VERTEX_POINT('',#296);
#99=VERTEX_POINT('',#300);
#100=VERTEX_POINT('',#302);
#101=VERTEX_POINT('',#306);
#102=VERTEX_POINT('',#310);
#103=EDGE_CURVE('',#87,#88,#83,.T.);
#104=EDGE_CURVE('',#89,#87,#43,.T.);
#105=EDGE_CURVE('',#89,#90,#84,.T.);
#106=EDGE_CURVE('',#88,#90,#44,.T.);
#107=EDGE_CURVE('',#91,#92,#85,.T.);
#108=EDGE_CURVE('',#93,#91,#45,.T.);
#109=EDGE_CURVE('',#93,#94,#86,.T.);
#110=EDGE_CURVE('',#92,#94,#46,.T.);
#111=EDGE_CURVE('',#90,#93,#47,.T.);
#112=EDGE_CURVE('',#94,#89,#48,.T.);
#113=EDGE_CURVE('',#92,#95,#49,.T.);
#114=EDGE_CURVE('',#95,#96,#50,.T.);
#115=EDGE_CURVE('',#96,#91,#51,.T.);
#116=EDGE_CURVE('',#88,#97,#52,.T.);
#117=EDGE_CURVE('',#97,#98,#53,.T.);
#118=EDGE_CURVE('',#98,#87,#54,.T.);
#119=EDGE_CURVE('',#99,#96,#55,.T.);
#120=EDGE_CURVE('',#99,#100,#56,.T.);
#121=EDGE_CURVE('',#100,#97,#57,.T.);
#122=EDGE_CURVE('',#101,#99,#58,.T.);
#123=EDGE_CURVE('',#101,#95,#59,.T.);
#124=EDGE_CURVE('',#102,#98,#60,.T.);
#125=EDGE_CURVE('',#102,#101,#61,.T.);
#126=EDGE_CURVE('',#100,#102,#62,.T.);
#127=ORIENTED_EDGE('',*,*,#103,.F.);
#128=ORIENTED_EDGE('',*,*,#104,.F.);
#129=ORIENTED_EDGE('',*,*,#105,.T.);
#130=ORIENTED_EDGE('',*,*,#106,.F.);
#131=ORIENTED_EDGE('',*,*,#107,.F.);
#132=ORIENTED_EDGE('',*,*,#108,.F.);
#133=ORIENTED_EDGE('',*,*,#109,.T.);
#134=ORIENTED_EDGE('',*,*,#110,.F.);
#135=ORIENTED_EDGE('',*,*,#111,.F.);
#136=ORIENTED_EDGE('',*,*,#105,.F.);
#137=ORIENTED_EDGE('',*,*,#112,.F.);
#138=ORIENTED_EDGE('',*,*,#109,.F.);
#139=ORIENTED_EDGE('',*,*,#107,.T.);
#140=ORIENTED_EDGE('',*,*,#113,.T.);
#141=ORIENTED_EDGE('',*,*,#114,.T.);
#142=ORIENTED_EDGE('',*,*,#115,.T.);
#143=ORIENTED_EDGE('',*,*,#103,.T.);
#144=ORIENTED_EDGE('',*,*,#116,.T.);
#145=ORIENTED_EDGE('',*,*,#117,.T.);
#146=ORIENTED_EDGE('',*,*,#118,.T.);
#147=ORIENTED_EDGE('',*,*,#106,.T.);
#148=ORIENTED_EDGE('',*,*,#111,.T.);
#149=ORIENTED_EDGE('',*,*,#108,.T.);
#150=ORIENTED_EDGE('',*,*,#115,.F.);
#151=ORIENTED_EDGE('',*,*,#119,.F.);
#152=ORIENTED_EDGE('',*,*,#120,.T.);
#153=ORIENTED_EDGE('',*,*,#121,.T.);
#154=ORIENTED_EDGE('',*,*,#116,.F.);
#155=ORIENTED_EDGE('',*,*,#122,.T.);
#156=ORIENTED_EDGE('',*,*,#119,.T.);
#157=ORIENTED_EDGE('',*,*,#114,.F.);
#158=ORIENTED_EDGE('',*,*,#123,.F.);
#159=ORIENTED_EDGE('',*,*,#104,.T.);
#160=ORIENTED_EDGE('',*,*,#118,.F.);
#161=ORIENTED_EDGE('',*,*,#124,.F.);
#162=ORIENTED_EDGE('',*,*,#125,.T.);
#163=ORIENTED_EDGE('',*,*,#123,.T.);
#164=ORIENTED_EDGE('',*,*,#113,.F.);
#165=ORIENTED_EDGE('',*,*,#110,.T.);
#166=ORIENTED_EDGE('',*,*,#112,.T.);
#167=ORIENTED_EDGE('',*,*,#126,.T.);
#168=ORIENTED_EDGE('',*,*,#124,.T.);
#169=ORIENTED_EDGE('',*,*,#117,.F.);
#170=ORIENTED_EDGE('',*,*,#121,.F.);
#171=ORIENTED_EDGE('',*,*,#120,.F.);
#172=ORIENTED_EDGE('',*,*,#122,.F.);
#173=ORIENTED_EDGE('',*,*,#125,.F.);
#174=ORIENTED_EDGE('',*,*,#126,.F.);
#175=CYLINDRICAL_SURFACE('',#201,7.5);
#176=CYLINDRICAL_SURFACE('',#204,7.5);
#177=ADVANCED_FACE('',(#23),#175,.T.);
#178=ADVANCED_FACE('',(#24),#176,.T.);
#179=ADVANCED_FACE('',(#25),#15,.T.);
#180=ADVANCED_FACE('',(#26),#16,.T.);
#181=ADVANCED_FACE('',(#27),#17,.T.);
#182=ADVANCED_FACE('',(#28),#18,.T.);
#183=ADVANCED_FACE('',(#29),#19,.T.);
#184=ADVANCED_FACE('',(#30),#20,.T.);
#185=ADVANCED_FACE('',(#31),#21,.T.);
#186=ADVANCED_FACE('',(#32),#22,.F.);
#187=CLOSED_SHELL('',(#177,#178,#179,#180,#181,#182,#183,#184,#185,#186));
#188=DERIVED_UNIT_ELEMENT(#190,1.);
#189=DERIVED_UNIT_ELEMENT(#321,3.);
#190=(
MASS_UNIT()
NAMED_UNIT(*)
SI_UNIT($,.GRAM.)
);
#191=DERIVED_UNIT((#188,#189));
#192=MEASURE_REPRESENTATION_ITEM('density measure',
POSITIVE_RATIO_MEASURE(1.),#191);
#193=PROPERTY_DEFINITION_REPRESENTATION(#198,#195);
#194=PROPERTY_DEFINITION_REPRESENTATION(#199,#196);
#195=REPRESENTATION('material name',(#197),#318);
#196=REPRESENTATION('density',(#192),#318);
#197=DESCRIPTIVE_REPRESENTATION_ITEM('Generic','Generic');
#198=PROPERTY_DEFINITION('material property','material name',#328);
#199=PROPERTY_DEFINITION('material property','density of part',#328);
#200=AXIS2_PLACEMENT_3D('placement',#265,#215,#216);
#201=AXIS2_PLACEMENT_3D('',#266,#217,#218);
#202=AXIS2_PLACEMENT_3D('',#269,#219,#220);
#203=AXIS2_PLACEMENT_3D('',#273,#222,#223);
#204=AXIS2_PLACEMENT_3D('',#275,#225,#226);
#205=AXIS2_PLACEMENT_3D('',#278,#227,#228);
#206=AXIS2_PLACEMENT_3D('',#282,#230,#231);
#207=AXIS2_PLACEMENT_3D('',#284,#233,#234);
#208=AXIS2_PLACEMENT_3D('',#287,#237,#238);
#209=AXIS2_PLACEMENT_3D('',#293,#242,#243);
#210=AXIS2_PLACEMENT_3D('',#299,#247,#248);
#211=AXIS2_PLACEMENT_3D('',#305,#252,#253);
#212=AXIS2_PLACEMENT_3D('',#309,#256,#257);
#213=AXIS2_PLACEMENT_3D('',#313,#260,#261);
#214=AXIS2_PLACEMENT_3D('',#315,#263,#264);
#215=DIRECTION('axis',(0.,0.,1.));
#216=DIRECTION('refdir',(1.,0.,0.));
#217=DIRECTION('center_axis',(0.,1.70803542250024E-16,-1.));
#218=DIRECTION('ref_axis',(0.666666666666668,0.745355992499928,1.2730944375627E-16));
#219=DIRECTION('center_axis',(0.,-2.22044604925031E-16,1.));
#220=DIRECTION('ref_axis',(0.666666666666668,0.745355992499928,1.2730944375627E-16));
#221=DIRECTION('',(0.,-1.70803542250024E-16,1.));
#222=DIRECTION('center_axis',(-1.23259516440783E-32,-2.22044604925031E-16,
1.));
#223=DIRECTION('ref_axis',(0.666666666666668,0.745355992499928,1.65502276883151E-16));
#224=DIRECTION('',(0.,1.70803542250024E-16,-1.));
#225=DIRECTION('center_axis',(0.,1.70803542250024E-16,-1.));
#226=DIRECTION('ref_axis',(-0.666666666666668,-0.745355992499929,-1.2730944375627E-16));
#227=DIRECTION('center_axis',(0.,-2.22044604925031E-16,1.));
#228=DIRECTION('ref_axis',(-0.666666666666668,-0.745355992499929,-1.2730944375627E-16));
#229=DIRECTION('',(0.,-1.70803542250024E-16,1.));
#230=DIRECTION('center_axis',(0.,-2.22044604925031E-16,1.));
#231=DIRECTION('ref_axis',(-0.666666666666668,-0.745355992499929,-1.65502276883151E-16));
#232=DIRECTION('',(0.,1.70803542250024E-16,-1.));
#233=DIRECTION('center_axis',(0.,-2.22044604925031E-16,1.));
#234=DIRECTION('ref_axis',(1.,0.,0.));
#235=DIRECTION('',(0.,-1.,-2.22044604925031E-16));
#236=DIRECTION('',(-4.44089209850063E-16,1.,2.22044604925031E-16));
#237=DIRECTION('center_axis',(0.,-2.22044604925031E-16,1.));
#238=DIRECTION('ref_axis',(0.,-1.,-2.22044604925031E-16));
#239=DIRECTION('',(4.44089209850063E-16,-1.,-2.22044604925031E-16));
#240=DIRECTION('',(1.,-3.5527136788005E-15,-7.88860905221011E-31));
#241=DIRECTION('',(0.,1.,2.22044604925031E-16));
#242=DIRECTION('center_axis',(0.,-2.22044604925031E-16,1.));
#243=DIRECTION('ref_axis',(0.,-1.,-2.22044604925031E-16));
#244=DIRECTION('',(0.,1.,2.22044604925031E-16));
#245=DIRECTION('',(-1.,0.,0.));
#246=DIRECTION('',(4.44089209850063E-16,-1.,-2.22044604925031E-16));
#247=DIRECTION('center_axis',(1.,0.,0.));
#248=DIRECTION('ref_axis',(0.,1.,2.22044604925031E-16));
#249=DIRECTION('',(0.,-2.22044604925031E-16,1.));
#250=DIRECTION('',(0.,1.,2.22044604925031E-16));
#251=DIRECTION('',(0.,-2.22044604925031E-16,1.));
#252=DIRECTION('center_axis',(-3.5527136788005E-15,-1.,-2.22044604925031E-16));
#253=DIRECTION('ref_axis',(1.,-3.5527136788005E-15,-7.88860905221011E-31));
#254=DIRECTION('',(1.,-3.5527136788005E-15,-7.88860905221011E-31));
#255=DIRECTION('',(0.,-2.22044604925031E-16,1.));
#256=DIRECTION('center_axis',(-1.,-4.44089209850063E-16,-9.86076131526265E-32));
#257=DIRECTION('ref_axis',(4.44089209850063E-16,-1.,-2.22044604925031E-16));
#258=DIRECTION('',(0.,-2.22044604925031E-16,1.));
#259=DIRECTION('',(4.44089209850063E-16,-1.,-2.22044604925031E-16));
#260=DIRECTION('center_axis',(0.,1.,2.22044604925031E-16));
#261=DIRECTION('ref_axis',(-1.,0.,0.));
#262=DIRECTION('',(-1.,0.,0.));
#263=DIRECTION('center_axis',(0.,-2.22044604925031E-16,1.));
#264=DIRECTION('ref_axis',(0.,-1.,-2.22044604925031E-16));
#265=CARTESIAN_POINT('',(0.,0.,0.));
#266=CARTESIAN_POINT('Origin',(82.6661728291921,16.5901699437494,-72.9985228951256));
#267=CARTESIAN_POINT('',(77.6661728291921,11.,-72.9985228951256));
#268=CARTESIAN_POINT('',(87.6661728291922,11.,-72.9985228951256));
#269=CARTESIAN_POINT('Origin',(82.6661728291921,16.5901699437494,-72.9985228951256));
#270=CARTESIAN_POINT('',(77.6661728291921,11.,-85.9985228951256));
#271=CARTESIAN_POINT('',(77.6661728291921,11.,-72.9985228951256));
#272=CARTESIAN_POINT('',(87.6661728291922,11.,-85.9985228951256));
#273=CARTESIAN_POINT('Origin',(82.6661728291921,16.5901699437494,-85.9985228951256));
#274=CARTESIAN_POINT('',(87.6661728291922,11.,-72.9985228951256));
#275=CARTESIAN_POINT('Origin',(82.6661728291922,-15.5901699437495,-72.9985228951256));
#276=CARTESIAN_POINT('',(87.6661728291922,-10.,-72.9985228951256));
#277=CARTESIAN_POINT('',(77.6661728291921,-10.,-72.9985228951256));
#278=CARTESIAN_POINT('Origin',(82.6661728291922,-15.5901699437495,-72.9985228951256));
#279=CARTESIAN_POINT('',(87.6661728291922,-10.,-85.9985228951256));
#280=CARTESIAN_POINT('',(87.6661728291922,-10.,-72.9985228951256));
#281=CARTESIAN_POINT('',(77.6661728291921,-10.,-85.9985228951256));
#282=CARTESIAN_POINT('Origin',(82.6661728291922,-15.5901699437495,-85.9985228951256));
#283=CARTESIAN_POINT('',(77.6661728291922,-10.,-72.9985228951256));
#284=CARTESIAN_POINT('Origin',(82.6661728291921,0.499999999999974,-85.9985228951256));
#285=CARTESIAN_POINT('',(87.6661728291922,-9.75000000000004,-85.9985228951256));
#286=CARTESIAN_POINT('',(77.6661728291921,10.25,-85.9985228951256));
#287=CARTESIAN_POINT('Origin',(82.6661728291921,-3.5527136788005E-14,-72.9985228951256));
#288=CARTESIAN_POINT('',(77.6661728291922,-20.,-72.9985228951256));
#289=CARTESIAN_POINT('',(77.6661728291921,20.,-72.9985228951256));
#290=CARTESIAN_POINT('',(87.6661728291922,-20.0000000000001,-72.9985228951256));
#291=CARTESIAN_POINT('',(77.6661728291922,-20.,-72.9985228951256));
#292=CARTESIAN_POINT('',(87.6661728291922,-20.0000000000001,-72.9985228951256));
#293=CARTESIAN_POINT('Origin',(82.6661728291921,-3.5527136788005E-14,-72.9985228951256));
#294=CARTESIAN_POINT('',(87.6661728291922,20.,-72.9985228951256));
#295=CARTESIAN_POINT('',(87.6661728291922,-20.0000000000001,-72.9985228951256));
#296=CARTESIAN_POINT('',(77.6661728291921,20.,-72.9985228951256));
#297=CARTESIAN_POINT('',(87.6661728291922,20.,-72.9985228951256));
#298=CARTESIAN_POINT('',(77.6661728291921,20.,-72.9985228951256));
#299=CARTESIAN_POINT('Origin',(87.6661728291922,-20.0000000000001,-92.9985228951256));
#300=CARTESIAN_POINT('',(87.6661728291922,-20.0000000000001,-92.9985228951256));
#301=CARTESIAN_POINT('',(87.6661728291922,-20.0000000000001,-92.9985228951256));
#302=CARTESIAN_POINT('',(87.6661728291922,20.,-92.9985228951256));
#303=CARTESIAN_POINT('',(87.6661728291922,-20.0000000000001,-92.9985228951256));
#304=CARTESIAN_POINT('',(87.6661728291922,20.,-92.9985228951256));
#305=CARTESIAN_POINT('Origin',(77.6661728291922,-20.,-92.9985228951256));
#306=CARTESIAN_POINT('',(77.6661728291922,-20.,-92.9985228951256));
#307=CARTESIAN_POINT('',(77.6661728291922,-20.,-92.9985228951256));
#308=CARTESIAN_POINT('',(77.6661728291922,-20.,-92.9985228951256));
#309=CARTESIAN_POINT('Origin',(77.6661728291921,20.,-92.9985228951256));
#310=CARTESIAN_POINT('',(77.6661728291921,20.,-92.9985228951256));
#311=CARTESIAN_POINT('',(77.6661728291921,20.,-92.9985228951256));
#312=CARTESIAN_POINT('',(77.6661728291921,20.,-92.9985228951256));
#313=CARTESIAN_POINT('Origin',(87.6661728291922,20.,-92.9985228951256));
#314=CARTESIAN_POINT('',(87.6661728291922,20.,-92.9985228951256));
#315=CARTESIAN_POINT('Origin',(82.6661728291921,-3.5527136788005E-14,-92.9985228951256));
#316=UNCERTAINTY_MEASURE_WITH_UNIT(LENGTH_MEASURE(0.01),#320,
'DISTANCE_ACCURACY_VALUE',
'Maximum model space distance between geometric entities at asserted c
onnectivities');
#317=UNCERTAINTY_MEASURE_WITH_UNIT(LENGTH_MEASURE(0.01),#320,
'DISTANCE_ACCURACY_VALUE',
'Maximum model space distance between geometric entities at asserted c
onnectivities');
#318=(
GEOMETRIC_REPRESENTATION_CONTEXT(3)
GLOBAL_UNCERTAINTY_ASSIGNED_CONTEXT((#316))
GLOBAL_UNIT_ASSIGNED_CONTEXT((#320,#322,#323))
REPRESENTATION_CONTEXT('','3D')
);
#319=(
GEOMETRIC_REPRESENTATION_CONTEXT(3)
GLOBAL_UNCERTAINTY_ASSIGNED_CONTEXT((#317))
GLOBAL_UNIT_ASSIGNED_CONTEXT((#320,#322,#323))
REPRESENTATION_CONTEXT('','3D')
);
#320=(
LENGTH_UNIT()
NAMED_UNIT(*)
SI_UNIT(.MILLI.,.METRE.)
);
#321=(
LENGTH_UNIT()
NAMED_UNIT(*)
SI_UNIT(.CENTI.,.METRE.)
);
#322=(
NAMED_UNIT(*)
PLANE_ANGLE_UNIT()
SI_UNIT($,.RADIAN.)
);
#323=(
NAMED_UNIT(*)
SI_UNIT($,.STERADIAN.)
SOLID_ANGLE_UNIT()
);
#324=SHAPE_DEFINITION_REPRESENTATION(#325,#326);
#325=PRODUCT_DEFINITION_SHAPE('',$,#328);
#326=SHAPE_REPRESENTATION('',(#200),#318);
#327=PRODUCT_DEFINITION_CONTEXT('part definition',#332,'design');
#328=PRODUCT_DEFINITION(
'OPEN POCKET_01_WITH Bound. walls, NO Int. fillets - 03',
'OPEN POCKET_01_WITH Bound. walls, NO Int. fillets - 03',#329,#327);
#329=PRODUCT_DEFINITION_FORMATION('',$,#334);
#330=PRODUCT_RELATED_PRODUCT_CATEGORY(
'OPEN POCKET_01_WITH Bound. walls, NO Int. fillets - 03',
'OPEN POCKET_01_WITH Bound. walls, NO Int. fillets - 03',(#334));
#331=APPLICATION_PROTOCOL_DEFINITION('international standard',
'automotive_design',2009,#332);
#332=APPLICATION_CONTEXT(
'Core Data for Automotive Mechanical Design Process');
#333=PRODUCT_CONTEXT('part definition',#332,'mechanical');
#334=PRODUCT('OPEN POCKET_01_WITH Bound. walls, NO Int. fillets - 03',
'OPEN POCKET_01_WITH Bound. walls, NO Int. fillets - 03',$,(#333));
#335=PRESENTATION_STYLE_ASSIGNMENT((#336));
#336=SURFACE_STYLE_USAGE(.BOTH.,#339);
#337=SURFACE_STYLE_RENDERING_WITH_PROPERTIES($,#343,(#338));
#338=SURFACE_STYLE_TRANSPARENT(0.);
#339=SURFACE_SIDE_STYLE('',(#340,#337));
#340=SURFACE_STYLE_FILL_AREA(#341);
#341=FILL_AREA_STYLE('',(#342));
#342=FILL_AREA_STYLE_COLOUR('',#343);
#343=COLOUR_RGB('',0.749019607843137,0.749019607843137,0.749019607843137);
ENDSEC;
END-ISO-10303-21;
