ISO-10303-21;
HEADER;
/* Generated by software containing ST-Developer
 * from STEP Tools, Inc. (www.steptools.com) 
 */

FILE_DESCRIPTION(
/* description */ (''),
/* implementation_level */ '2;1');

FILE_NAME(
/* name */ 
'C:\\Users\\pschwitalla\\OneDrive - igus GmbH\\Documents\\190520_Platt
form Tribocut\\01_Instant Quoting\\L\X\D6SUNGEN\\Oroox\\03_CNC calcula
tion\\40_Calculations\\Pockets\\03_Closed Pocket_planar floor, NO floo
r fillets, arbitrary shape_v01.stp',
/* time_stamp */ '2022-03-11T15:47:50+01:00',
/* author */ ('pschwitalla'),
/* organization */ ('igus GmbH'),
/* preprocessor_version */ 'ST-DEVELOPER v18.1',
/* originating_system */ 'Autodesk Inventor 2020',
/* authorisation */ '');

FILE_SCHEMA (('AUTOMOTIVE_DESIGN { 1 0 10303 214 3 1 1 }'));
ENDSEC;

DATA;
#10=MECHANICAL_DESIGN_GEOMETRIC_PRESENTATION_REPRESENTATION('',(#13),#533);
#11=SHAPE_REPRESENTATION_RELATIONSHIP('SRR','None',#540,#12);
#12=ADVANCED_BREP_SHAPE_REPRESENTATION('',(#14),#532);
#13=STYLED_ITEM('',(#549),#14);
#14=MANIFOLD_SOLID_BREP('Solid1',#313);
#15=FACE_BOUND('',#64,.T.);
#16=CIRCLE('',#329,5.);
#17=CIRCLE('',#330,5.);
#18=CIRCLE('',#333,10.);
#19=CIRCLE('',#334,10.);
#20=CIRCLE('',#337,10.);
#21=CIRCLE('',#338,10.);
#22=CIRCLE('',#341,3.00451629199237);
#23=CIRCLE('',#342,3.00451629199237);
#24=CIRCLE('',#345,10.);
#25=CIRCLE('',#346,10.);
#26=CYLINDRICAL_SURFACE('',#328,5.);
#27=CYLINDRICAL_SURFACE('',#332,10.);
#28=CYLINDRICAL_SURFACE('',#336,10.);
#29=CYLINDRICAL_SURFACE('',#340,3.00451629199237);
#30=CYLINDRICAL_SURFACE('',#344,10.);
#31=FACE_OUTER_BOUND('',#48,.T.);
#32=FACE_OUTER_BOUND('',#49,.T.);
#33=FACE_OUTER_BOUND('',#50,.T.);
#34=FACE_OUTER_BOUND('',#51,.T.);
#35=FACE_OUTER_BOUND('',#52,.T.);
#36=FACE_OUTER_BOUND('',#53,.T.);
#37=FACE_OUTER_BOUND('',#54,.T.);
#38=FACE_OUTER_BOUND('',#55,.T.);
#39=FACE_OUTER_BOUND('',#56,.T.);
#40=FACE_OUTER_BOUND('',#57,.T.);
#41=FACE_OUTER_BOUND('',#58,.T.);
#42=FACE_OUTER_BOUND('',#59,.T.);
#43=FACE_OUTER_BOUND('',#60,.T.);
#44=FACE_OUTER_BOUND('',#61,.T.);
#45=FACE_OUTER_BOUND('',#62,.T.);
#46=FACE_OUTER_BOUND('',#63,.T.);
#47=FACE_OUTER_BOUND('',#65,.T.);
#48=EDGE_LOOP('',(#200,#201,#202,#203));
#49=EDGE_LOOP('',(#204,#205,#206,#207));
#50=EDGE_LOOP('',(#208,#209,#210,#211));
#51=EDGE_LOOP('',(#212,#213,#214,#215));
#52=EDGE_LOOP('',(#216,#217,#218,#219));
#53=EDGE_LOOP('',(#220,#221,#222,#223));
#54=EDGE_LOOP('',(#224,#225,#226,#227));
#55=EDGE_LOOP('',(#228,#229,#230,#231));
#56=EDGE_LOOP('',(#232,#233,#234,#235));
#57=EDGE_LOOP('',(#236,#237,#238,#239));
#58=EDGE_LOOP('',(#240,#241,#242,#243,#244,#245,#246,#247,#248,#249));
#59=EDGE_LOOP('',(#250,#251,#252,#253));
#60=EDGE_LOOP('',(#254,#255,#256,#257));
#61=EDGE_LOOP('',(#258,#259,#260,#261));
#62=EDGE_LOOP('',(#262,#263,#264,#265));
#63=EDGE_LOOP('',(#266,#267,#268,#269));
#64=EDGE_LOOP('',(#270,#271,#272,#273,#274,#275,#276,#277,#278,#279));
#65=EDGE_LOOP('',(#280,#281,#282,#283));
#66=LINE('',#446,#98);
#67=LINE('',#448,#99);
#68=LINE('',#450,#100);
#69=LINE('',#451,#101);
#70=LINE('',#456,#102);
#71=LINE('',#460,#103);
#72=LINE('',#462,#104);
#73=LINE('',#463,#105);
#74=LINE('',#468,#106);
#75=LINE('',#472,#107);
#76=LINE('',#474,#108);
#77=LINE('',#475,#109);
#78=LINE('',#480,#110);
#79=LINE('',#484,#111);
#80=LINE('',#486,#112);
#81=LINE('',#487,#113);
#82=LINE('',#492,#114);
#83=LINE('',#496,#115);
#84=LINE('',#498,#116);
#85=LINE('',#499,#117);
#86=LINE('',#507,#118);
#87=LINE('',#509,#119);
#88=LINE('',#511,#120);
#89=LINE('',#512,#121);
#90=LINE('',#515,#122);
#91=LINE('',#517,#123);
#92=LINE('',#518,#124);
#93=LINE('',#521,#125);
#94=LINE('',#523,#126);
#95=LINE('',#524,#127);
#96=LINE('',#526,#128);
#97=LINE('',#527,#129);
#98=VECTOR('',#358,10.);
#99=VECTOR('',#359,10.);
#100=VECTOR('',#360,10.);
#101=VECTOR('',#361,10.);
#102=VECTOR('',#366,10.);
#103=VECTOR('',#371,10.);
#104=VECTOR('',#372,10.);
#105=VECTOR('',#373,10.);
#106=VECTOR('',#378,10.);
#107=VECTOR('',#383,10.);
#108=VECTOR('',#384,10.);
#109=VECTOR('',#385,10.);
#110=VECTOR('',#390,10.);
#111=VECTOR('',#395,10.);
#112=VECTOR('',#396,10.);
#113=VECTOR('',#397,10.);
#114=VECTOR('',#402,10.);
#115=VECTOR('',#407,10.);
#116=VECTOR('',#408,10.);
#117=VECTOR('',#409,10.);
#118=VECTOR('',#420,10.);
#119=VECTOR('',#421,10.);
#120=VECTOR('',#422,10.);
#121=VECTOR('',#423,10.);
#122=VECTOR('',#426,10.);
#123=VECTOR('',#427,10.);
#124=VECTOR('',#428,10.);
#125=VECTOR('',#431,10.);
#126=VECTOR('',#432,10.);
#127=VECTOR('',#433,10.);
#128=VECTOR('',#436,10.);
#129=VECTOR('',#437,10.);
#130=VERTEX_POINT('',#444);
#131=VERTEX_POINT('',#445);
#132=VERTEX_POINT('',#447);
#133=VERTEX_POINT('',#449);
#134=VERTEX_POINT('',#453);
#135=VERTEX_POINT('',#455);
#136=VERTEX_POINT('',#459);
#137=VERTEX_POINT('',#461);
#138=VERTEX_POINT('',#465);
#139=VERTEX_POINT('',#467);
#140=VERTEX_POINT('',#471);
#141=VERTEX_POINT('',#473);
#142=VERTEX_POINT('',#477);
#143=VERTEX_POINT('',#479);
#144=VERTEX_POINT('',#483);
#145=VERTEX_POINT('',#485);
#146=VERTEX_POINT('',#489);
#147=VERTEX_POINT('',#491);
#148=VERTEX_POINT('',#495);
#149=VERTEX_POINT('',#497);
#150=VERTEX_POINT('',#505);
#151=VERTEX_POINT('',#506);
#152=VERTEX_POINT('',#508);
#153=VERTEX_POINT('',#510);
#154=VERTEX_POINT('',#514);
#155=VERTEX_POINT('',#516);
#156=VERTEX_POINT('',#520);
#157=VERTEX_POINT('',#522);
#158=EDGE_CURVE('',#130,#131,#66,.T.);
#159=EDGE_CURVE('',#130,#132,#67,.T.);
#160=EDGE_CURVE('',#132,#133,#68,.T.);
#161=EDGE_CURVE('',#131,#133,#69,.T.);
#162=EDGE_CURVE('',#134,#130,#16,.T.);
#163=EDGE_CURVE('',#134,#135,#70,.T.);
#164=EDGE_CURVE('',#135,#132,#17,.T.);
#165=EDGE_CURVE('',#136,#134,#71,.T.);
#166=EDGE_CURVE('',#136,#137,#72,.T.);
#167=EDGE_CURVE('',#137,#135,#73,.T.);
#168=EDGE_CURVE('',#138,#136,#18,.T.);
#169=EDGE_CURVE('',#138,#139,#74,.T.);
#170=EDGE_CURVE('',#139,#137,#19,.T.);
#171=EDGE_CURVE('',#140,#138,#75,.T.);
#172=EDGE_CURVE('',#140,#141,#76,.T.);
#173=EDGE_CURVE('',#141,#139,#77,.T.);
#174=EDGE_CURVE('',#142,#140,#20,.T.);
#175=EDGE_CURVE('',#142,#143,#78,.T.);
#176=EDGE_CURVE('',#143,#141,#21,.T.);
#177=EDGE_CURVE('',#144,#142,#79,.T.);
#178=EDGE_CURVE('',#144,#145,#80,.T.);
#179=EDGE_CURVE('',#145,#143,#81,.T.);
#180=EDGE_CURVE('',#146,#144,#22,.T.);
#181=EDGE_CURVE('',#146,#147,#82,.T.);
#182=EDGE_CURVE('',#147,#145,#23,.T.);
#183=EDGE_CURVE('',#148,#146,#83,.T.);
#184=EDGE_CURVE('',#148,#149,#84,.T.);
#185=EDGE_CURVE('',#149,#147,#85,.T.);
#186=EDGE_CURVE('',#131,#148,#24,.T.);
#187=EDGE_CURVE('',#133,#149,#25,.T.);
#188=EDGE_CURVE('',#150,#151,#86,.T.);
#189=EDGE_CURVE('',#151,#152,#87,.T.);
#190=EDGE_CURVE('',#153,#152,#88,.T.);
#191=EDGE_CURVE('',#150,#153,#89,.T.);
#192=EDGE_CURVE('',#154,#150,#90,.T.);
#193=EDGE_CURVE('',#155,#153,#91,.T.);
#194=EDGE_CURVE('',#154,#155,#92,.T.);
#195=EDGE_CURVE('',#156,#154,#93,.T.);
#196=EDGE_CURVE('',#157,#155,#94,.T.);
#197=EDGE_CURVE('',#156,#157,#95,.T.);
#198=EDGE_CURVE('',#151,#156,#96,.T.);
#199=EDGE_CURVE('',#152,#157,#97,.T.);
#200=ORIENTED_EDGE('',*,*,#158,.F.);
#201=ORIENTED_EDGE('',*,*,#159,.T.);
#202=ORIENTED_EDGE('',*,*,#160,.T.);
#203=ORIENTED_EDGE('',*,*,#161,.F.);
#204=ORIENTED_EDGE('',*,*,#162,.F.);
#205=ORIENTED_EDGE('',*,*,#163,.T.);
#206=ORIENTED_EDGE('',*,*,#164,.T.);
#207=ORIENTED_EDGE('',*,*,#159,.F.);
#208=ORIENTED_EDGE('',*,*,#165,.F.);
#209=ORIENTED_EDGE('',*,*,#166,.T.);
#210=ORIENTED_EDGE('',*,*,#167,.T.);
#211=ORIENTED_EDGE('',*,*,#163,.F.);
#212=ORIENTED_EDGE('',*,*,#168,.F.);
#213=ORIENTED_EDGE('',*,*,#169,.T.);
#214=ORIENTED_EDGE('',*,*,#170,.T.);
#215=ORIENTED_EDGE('',*,*,#166,.F.);
#216=ORIENTED_EDGE('',*,*,#171,.F.);
#217=ORIENTED_EDGE('',*,*,#172,.T.);
#218=ORIENTED_EDGE('',*,*,#173,.T.);
#219=ORIENTED_EDGE('',*,*,#169,.F.);
#220=ORIENTED_EDGE('',*,*,#174,.F.);
#221=ORIENTED_EDGE('',*,*,#175,.T.);
#222=ORIENTED_EDGE('',*,*,#176,.T.);
#223=ORIENTED_EDGE('',*,*,#172,.F.);
#224=ORIENTED_EDGE('',*,*,#177,.F.);
#225=ORIENTED_EDGE('',*,*,#178,.T.);
#226=ORIENTED_EDGE('',*,*,#179,.T.);
#227=ORIENTED_EDGE('',*,*,#175,.F.);
#228=ORIENTED_EDGE('',*,*,#180,.F.);
#229=ORIENTED_EDGE('',*,*,#181,.T.);
#230=ORIENTED_EDGE('',*,*,#182,.T.);
#231=ORIENTED_EDGE('',*,*,#178,.F.);
#232=ORIENTED_EDGE('',*,*,#183,.F.);
#233=ORIENTED_EDGE('',*,*,#184,.T.);
#234=ORIENTED_EDGE('',*,*,#185,.T.);
#235=ORIENTED_EDGE('',*,*,#181,.F.);
#236=ORIENTED_EDGE('',*,*,#186,.F.);
#237=ORIENTED_EDGE('',*,*,#161,.T.);
#238=ORIENTED_EDGE('',*,*,#187,.T.);
#239=ORIENTED_EDGE('',*,*,#184,.F.);
#240=ORIENTED_EDGE('',*,*,#187,.F.);
#241=ORIENTED_EDGE('',*,*,#160,.F.);
#242=ORIENTED_EDGE('',*,*,#164,.F.);
#243=ORIENTED_EDGE('',*,*,#167,.F.);
#244=ORIENTED_EDGE('',*,*,#170,.F.);
#245=ORIENTED_EDGE('',*,*,#173,.F.);
#246=ORIENTED_EDGE('',*,*,#176,.F.);
#247=ORIENTED_EDGE('',*,*,#179,.F.);
#248=ORIENTED_EDGE('',*,*,#182,.F.);
#249=ORIENTED_EDGE('',*,*,#185,.F.);
#250=ORIENTED_EDGE('',*,*,#188,.T.);
#251=ORIENTED_EDGE('',*,*,#189,.T.);
#252=ORIENTED_EDGE('',*,*,#190,.F.);
#253=ORIENTED_EDGE('',*,*,#191,.F.);
#254=ORIENTED_EDGE('',*,*,#192,.T.);
#255=ORIENTED_EDGE('',*,*,#191,.T.);
#256=ORIENTED_EDGE('',*,*,#193,.F.);
#257=ORIENTED_EDGE('',*,*,#194,.F.);
#258=ORIENTED_EDGE('',*,*,#195,.T.);
#259=ORIENTED_EDGE('',*,*,#194,.T.);
#260=ORIENTED_EDGE('',*,*,#196,.F.);
#261=ORIENTED_EDGE('',*,*,#197,.F.);
#262=ORIENTED_EDGE('',*,*,#198,.T.);
#263=ORIENTED_EDGE('',*,*,#197,.T.);
#264=ORIENTED_EDGE('',*,*,#199,.F.);
#265=ORIENTED_EDGE('',*,*,#189,.F.);
#266=ORIENTED_EDGE('',*,*,#199,.T.);
#267=ORIENTED_EDGE('',*,*,#196,.T.);
#268=ORIENTED_EDGE('',*,*,#193,.T.);
#269=ORIENTED_EDGE('',*,*,#190,.T.);
#270=ORIENTED_EDGE('',*,*,#158,.T.);
#271=ORIENTED_EDGE('',*,*,#186,.T.);
#272=ORIENTED_EDGE('',*,*,#183,.T.);
#273=ORIENTED_EDGE('',*,*,#180,.T.);
#274=ORIENTED_EDGE('',*,*,#177,.T.);
#275=ORIENTED_EDGE('',*,*,#174,.T.);
#276=ORIENTED_EDGE('',*,*,#171,.T.);
#277=ORIENTED_EDGE('',*,*,#168,.T.);
#278=ORIENTED_EDGE('',*,*,#165,.T.);
#279=ORIENTED_EDGE('',*,*,#162,.T.);
#280=ORIENTED_EDGE('',*,*,#198,.F.);
#281=ORIENTED_EDGE('',*,*,#188,.F.);
#282=ORIENTED_EDGE('',*,*,#192,.F.);
#283=ORIENTED_EDGE('',*,*,#195,.F.);
#284=PLANE('',#327);
#285=PLANE('',#331);
#286=PLANE('',#335);
#287=PLANE('',#339);
#288=PLANE('',#343);
#289=PLANE('',#347);
#290=PLANE('',#348);
#291=PLANE('',#349);
#292=PLANE('',#350);
#293=PLANE('',#351);
#294=PLANE('',#352);
#295=PLANE('',#353);
#296=ADVANCED_FACE('',(#31),#284,.F.);
#297=ADVANCED_FACE('',(#32),#26,.F.);
#298=ADVANCED_FACE('',(#33),#285,.F.);
#299=ADVANCED_FACE('',(#34),#27,.F.);
#300=ADVANCED_FACE('',(#35),#286,.F.);
#301=ADVANCED_FACE('',(#36),#28,.F.);
#302=ADVANCED_FACE('',(#37),#287,.F.);
#303=ADVANCED_FACE('',(#38),#29,.T.);
#304=ADVANCED_FACE('',(#39),#288,.F.);
#305=ADVANCED_FACE('',(#40),#30,.F.);
#306=ADVANCED_FACE('',(#41),#289,.T.);
#307=ADVANCED_FACE('',(#42),#290,.T.);
#308=ADVANCED_FACE('',(#43),#291,.T.);
#309=ADVANCED_FACE('',(#44),#292,.T.);
#310=ADVANCED_FACE('',(#45),#293,.T.);
#311=ADVANCED_FACE('',(#46,#15),#294,.T.);
#312=ADVANCED_FACE('',(#47),#295,.F.);
#313=CLOSED_SHELL('',(#296,#297,#298,#299,#300,#301,#302,#303,#304,#305,
#306,#307,#308,#309,#310,#311,#312));
#314=DERIVED_UNIT_ELEMENT(#316,1.);
#315=DERIVED_UNIT_ELEMENT(#535,3.);
#316=(
MASS_UNIT()
NAMED_UNIT(*)
SI_UNIT($,.GRAM.)
);
#317=DERIVED_UNIT((#314,#315));
#318=MEASURE_REPRESENTATION_ITEM('density measure',
POSITIVE_RATIO_MEASURE(1.),#317);
#319=PROPERTY_DEFINITION_REPRESENTATION(#324,#321);
#320=PROPERTY_DEFINITION_REPRESENTATION(#325,#322);
#321=REPRESENTATION('material name',(#323),#532);
#322=REPRESENTATION('density',(#318),#532);
#323=DESCRIPTIVE_REPRESENTATION_ITEM('Generic','Generic');
#324=PROPERTY_DEFINITION('material property','material name',#542);
#325=PROPERTY_DEFINITION('material property','density of part',#542);
#326=AXIS2_PLACEMENT_3D('placement',#442,#354,#355);
#327=AXIS2_PLACEMENT_3D('',#443,#356,#357);
#328=AXIS2_PLACEMENT_3D('',#452,#362,#363);
#329=AXIS2_PLACEMENT_3D('',#454,#364,#365);
#330=AXIS2_PLACEMENT_3D('',#457,#367,#368);
#331=AXIS2_PLACEMENT_3D('',#458,#369,#370);
#332=AXIS2_PLACEMENT_3D('',#464,#374,#375);
#333=AXIS2_PLACEMENT_3D('',#466,#376,#377);
#334=AXIS2_PLACEMENT_3D('',#469,#379,#380);
#335=AXIS2_PLACEMENT_3D('',#470,#381,#382);
#336=AXIS2_PLACEMENT_3D('',#476,#386,#387);
#337=AXIS2_PLACEMENT_3D('',#478,#388,#389);
#338=AXIS2_PLACEMENT_3D('',#481,#391,#392);
#339=AXIS2_PLACEMENT_3D('',#482,#393,#394);
#340=AXIS2_PLACEMENT_3D('',#488,#398,#399);
#341=AXIS2_PLACEMENT_3D('',#490,#400,#401);
#342=AXIS2_PLACEMENT_3D('',#493,#403,#404);
#343=AXIS2_PLACEMENT_3D('',#494,#405,#406);
#344=AXIS2_PLACEMENT_3D('',#500,#410,#411);
#345=AXIS2_PLACEMENT_3D('',#501,#412,#413);
#346=AXIS2_PLACEMENT_3D('',#502,#414,#415);
#347=AXIS2_PLACEMENT_3D('',#503,#416,#417);
#348=AXIS2_PLACEMENT_3D('',#504,#418,#419);
#349=AXIS2_PLACEMENT_3D('',#513,#424,#425);
#350=AXIS2_PLACEMENT_3D('',#519,#429,#430);
#351=AXIS2_PLACEMENT_3D('',#525,#434,#435);
#352=AXIS2_PLACEMENT_3D('',#528,#438,#439);
#353=AXIS2_PLACEMENT_3D('',#529,#440,#441);
#354=DIRECTION('axis',(0.,0.,1.));
#355=DIRECTION('refdir',(1.,0.,0.));
#356=DIRECTION('center_axis',(0.,-1.,-2.22044604925031E-16));
#357=DIRECTION('ref_axis',(-1.,0.,0.));
#358=DIRECTION('',(-1.,0.,0.));
#359=DIRECTION('',(0.,2.22044604925031E-16,-1.));
#360=DIRECTION('',(-1.,0.,0.));
#361=DIRECTION('',(0.,2.22044604925031E-16,-1.));
#362=DIRECTION('center_axis',(0.,2.22044604925031E-16,-1.));
#363=DIRECTION('ref_axis',(0.,-1.,-2.22044604925031E-16));
#364=DIRECTION('center_axis',(0.,2.22044604925031E-16,-1.));
#365=DIRECTION('ref_axis',(0.,-1.,-2.22044604925031E-16));
#366=DIRECTION('',(0.,2.22044604925031E-16,-1.));
#367=DIRECTION('center_axis',(0.,2.22044604925031E-16,-1.));
#368=DIRECTION('ref_axis',(0.,-1.,-2.22044604925031E-16));
#369=DIRECTION('center_axis',(1.,1.74671581593432E-16,3.87848823265441E-32));
#370=DIRECTION('ref_axis',(1.74671581593432E-16,-1.,-2.22044604925031E-16));
#371=DIRECTION('',(1.74671581593432E-16,-1.,-2.22044604925031E-16));
#372=DIRECTION('',(0.,2.22044604925031E-16,-1.));
#373=DIRECTION('',(1.74671581593432E-16,-1.,-2.22044604925031E-16));
#374=DIRECTION('center_axis',(0.,2.22044604925031E-16,-1.));
#375=DIRECTION('ref_axis',(1.,0.,0.));
#376=DIRECTION('center_axis',(0.,2.22044604925031E-16,-1.));
#377=DIRECTION('ref_axis',(1.,0.,0.));
#378=DIRECTION('',(0.,2.22044604925031E-16,-1.));
#379=DIRECTION('center_axis',(0.,2.22044604925031E-16,-1.));
#380=DIRECTION('ref_axis',(1.,0.,0.));
#381=DIRECTION('center_axis',(-0.326552468968541,0.945179075630936,2.09871914431877E-16));
#382=DIRECTION('ref_axis',(0.945179075630936,0.326552468968541,7.25092139594131E-17));
#383=DIRECTION('',(0.945179075630936,0.326552468968541,7.25092139594131E-17));
#384=DIRECTION('',(0.,2.22044604925031E-16,-1.));
#385=DIRECTION('',(0.945179075630936,0.326552468968541,7.25092139594131E-17));
#386=DIRECTION('center_axis',(0.,2.22044604925031E-16,-1.));
#387=DIRECTION('ref_axis',(-0.32655246896854,0.945179075630936,2.09871914431877E-16));
#388=DIRECTION('center_axis',(0.,2.22044604925031E-16,-1.));
#389=DIRECTION('ref_axis',(-0.32655246896854,0.945179075630936,2.09871914431877E-16));
#390=DIRECTION('',(0.,2.22044604925031E-16,-1.));
#391=DIRECTION('center_axis',(0.,2.22044604925031E-16,-1.));
#392=DIRECTION('ref_axis',(-0.32655246896854,0.945179075630936,2.09871914431877E-16));
#393=DIRECTION('center_axis',(-0.736491894807095,-0.67644636807618,-1.50201266552448E-16));
#394=DIRECTION('ref_axis',(-0.67644636807618,0.736491894807095,1.63534051812929E-16));
#395=DIRECTION('',(-0.67644636807618,0.736491894807095,1.63534051812929E-16));
#396=DIRECTION('',(0.,2.22044604925031E-16,-1.));
#397=DIRECTION('',(-0.67644636807618,0.736491894807095,1.63534051812929E-16));
#398=DIRECTION('center_axis',(0.,2.22044604925031E-16,-1.));
#399=DIRECTION('ref_axis',(-0.67644636807618,0.736491894807095,1.63534051812929E-16));
#400=DIRECTION('center_axis',(0.,-2.22044604925031E-16,1.));
#401=DIRECTION('ref_axis',(-0.67644636807618,0.736491894807095,1.63534051812929E-16));
#402=DIRECTION('',(0.,2.22044604925031E-16,-1.));
#403=DIRECTION('center_axis',(0.,-2.22044604925031E-16,1.));
#404=DIRECTION('ref_axis',(-0.67644636807618,0.736491894807095,1.63534051812929E-16));
#405=DIRECTION('center_axis',(-0.67644636807618,0.736491894807095,1.63534051812929E-16));
#406=DIRECTION('ref_axis',(0.736491894807095,0.67644636807618,1.50201266552448E-16));
#407=DIRECTION('',(0.736491894807095,0.67644636807618,1.50201266552448E-16));
#408=DIRECTION('',(0.,2.22044604925031E-16,-1.));
#409=DIRECTION('',(0.736491894807095,0.67644636807618,1.50201266552448E-16));
#410=DIRECTION('center_axis',(0.,2.22044604925031E-16,-1.));
#411=DIRECTION('ref_axis',(-0.67644636807618,0.736491894807095,1.63534051812929E-16));
#412=DIRECTION('center_axis',(0.,2.22044604925031E-16,-1.));
#413=DIRECTION('ref_axis',(-0.67644636807618,0.736491894807095,1.63534051812929E-16));
#414=DIRECTION('center_axis',(0.,2.22044604925031E-16,-1.));
#415=DIRECTION('ref_axis',(-0.67644636807618,0.736491894807095,1.63534051812929E-16));
#416=DIRECTION('center_axis',(0.,-2.22044604925031E-16,1.));
#417=DIRECTION('ref_axis',(0.,-1.,-2.22044604925031E-16));
#418=DIRECTION('center_axis',(2.368475785867E-16,-1.,-2.22044604925031E-16));
#419=DIRECTION('ref_axis',(1.,2.368475785867E-16,5.25907270147341E-32));
#420=DIRECTION('',(1.,2.368475785867E-16,5.25907270147341E-32));
#421=DIRECTION('',(0.,-2.22044604925031E-16,1.));
#422=DIRECTION('',(1.,2.368475785867E-16,5.25907270147341E-32));
#423=DIRECTION('',(0.,-2.22044604925031E-16,1.));
#424=DIRECTION('center_axis',(-1.,0.,0.));
#425=DIRECTION('ref_axis',(0.,-1.,-2.22044604925031E-16));
#426=DIRECTION('',(0.,-1.,-2.22044604925031E-16));
#427=DIRECTION('',(0.,-1.,-2.22044604925031E-16));
#428=DIRECTION('',(0.,-2.22044604925031E-16,1.));
#429=DIRECTION('center_axis',(-2.368475785867E-16,1.,2.22044604925031E-16));
#430=DIRECTION('ref_axis',(-1.,-2.368475785867E-16,-5.25907270147341E-32));
#431=DIRECTION('',(-1.,-2.368475785867E-16,-5.25907270147341E-32));
#432=DIRECTION('',(-1.,-2.368475785867E-16,-5.25907270147341E-32));
#433=DIRECTION('',(0.,-2.22044604925031E-16,1.));
#434=DIRECTION('center_axis',(1.,2.66453525910038E-16,5.91645678915759E-32));
#435=DIRECTION('ref_axis',(-2.66453525910038E-16,1.,2.22044604925031E-16));
#436=DIRECTION('',(-2.66453525910038E-16,1.,2.22044604925031E-16));
#437=DIRECTION('',(-2.66453525910038E-16,1.,2.22044604925031E-16));
#438=DIRECTION('center_axis',(0.,-2.22044604925031E-16,1.));
#439=DIRECTION('ref_axis',(0.,-1.,-2.22044604925031E-16));
#440=DIRECTION('center_axis',(0.,-2.22044604925031E-16,1.));
#441=DIRECTION('ref_axis',(0.,-1.,-2.22044604925031E-16));
#442=CARTESIAN_POINT('',(0.,0.,0.));
#443=CARTESIAN_POINT('Origin',(16.7461789869453,-67.0475605527995,22.0014771048744));
#444=CARTESIAN_POINT('',(16.7461789869453,-67.0475605527995,22.0014771048744));
#445=CARTESIAN_POINT('',(-18.8610904906833,-67.0475605527995,22.0014771048744));
#446=CARTESIAN_POINT('',(14.7061759080688,-67.0475605527995,22.0014771048744));
#447=CARTESIAN_POINT('',(16.7461789869453,-67.0475605527995,7.00147710487441));
#448=CARTESIAN_POINT('',(16.7461789869453,-67.0475605527995,22.0014771048744));
#449=CARTESIAN_POINT('',(-18.8610904906833,-67.0475605527995,7.00147710487441));
#450=CARTESIAN_POINT('',(-18.8610904906833,-67.0475605527995,7.00147710487441));
#451=CARTESIAN_POINT('',(-18.8610904906833,-67.0475605527995,22.0014771048744));
#452=CARTESIAN_POINT('Origin',(16.7461789869453,-62.0475605527995,22.0014771048744));
#453=CARTESIAN_POINT('',(21.7461789869453,-62.0475605527995,22.0014771048744));
#454=CARTESIAN_POINT('Origin',(16.7461789869453,-62.0475605527995,22.0014771048744));
#455=CARTESIAN_POINT('',(21.7461789869453,-62.0475605527995,7.00147710487441));
#456=CARTESIAN_POINT('',(21.7461789869453,-62.0475605527995,22.0014771048744));
#457=CARTESIAN_POINT('Origin',(16.7461789869453,-62.0475605527995,7.00147710487441));
#458=CARTESIAN_POINT('Origin',(21.7461789869453,39.6493968569593,22.0014771048744));
#459=CARTESIAN_POINT('',(21.7461789869453,39.6493968569593,22.0014771048744));
#460=CARTESIAN_POINT('',(21.7461789869453,19.8246984284796,22.0014771048744));
#461=CARTESIAN_POINT('',(21.7461789869453,39.6493968569593,7.00147710487444));
#462=CARTESIAN_POINT('',(21.7461789869453,39.6493968569593,22.0014771048744));
#463=CARTESIAN_POINT('',(21.7461789869453,-62.0475605527995,7.00147710487441));
#464=CARTESIAN_POINT('Origin',(11.7461789869453,39.6493968569593,22.0014771048744));
#465=CARTESIAN_POINT('',(8.48065429725991,49.1011876132686,22.0014771048744));
#466=CARTESIAN_POINT('Origin',(11.7461789869453,39.6493968569593,22.0014771048744));
#467=CARTESIAN_POINT('',(8.48065429725991,49.1011876132686,7.00147710487444));
#468=CARTESIAN_POINT('',(8.48065429725991,49.1011876132686,22.0014771048744));
#469=CARTESIAN_POINT('Origin',(11.7461789869453,39.6493968569593,7.00147710487444));
#470=CARTESIAN_POINT('Origin',(-10.8244126223565,42.4314279574114,22.0014771048744));
#471=CARTESIAN_POINT('',(-10.8244126223565,42.4314279574114,22.0014771048744));
#472=CARTESIAN_POINT('',(-6.87983899694036,43.7942493418649,22.0014771048744));
#473=CARTESIAN_POINT('',(-10.8244126223565,42.4314279574114,7.00147710487444));
#474=CARTESIAN_POINT('',(-10.8244126223565,42.4314279574114,22.0014771048744));
#475=CARTESIAN_POINT('',(8.48065429725991,49.1011876132686,7.00147710487444));
#476=CARTESIAN_POINT('Origin',(-7.55888793267111,32.9796372011021,22.0014771048744));
#477=CARTESIAN_POINT('',(-14.9238068807421,26.2151735203402,22.0014771048744));
#478=CARTESIAN_POINT('Origin',(-7.55888793267111,32.9796372011021,22.0014771048744));
#479=CARTESIAN_POINT('',(-14.9238068807421,26.2151735203402,7.00147710487443));
#480=CARTESIAN_POINT('',(-14.9238068807421,26.2151735203402,22.0014771048744));
#481=CARTESIAN_POINT('Origin',(-7.55888793267111,32.9796372011021,7.00147710487443));
#482=CARTESIAN_POINT('Origin',(15.9589808838136,-7.4089598197939,22.0014771048744));
#483=CARTESIAN_POINT('',(15.9589808838136,-7.40895981979389,22.0014771048744));
#484=CARTESIAN_POINT('',(13.3600580731203,-4.57934068716624,22.0014771048744));
#485=CARTESIAN_POINT('',(15.9589808838136,-7.40895981979388,7.00147710487442));
#486=CARTESIAN_POINT('',(15.9589808838136,-7.40895981979389,22.0014771048744));
#487=CARTESIAN_POINT('',(-14.9238068807421,26.2151735203403,7.00147710487443));
#488=CARTESIAN_POINT('Origin',(13.7461789869453,-9.44135395333784,22.0014771048744));
#489=CARTESIAN_POINT('',(15.7785731204893,-11.6541558502061,22.0014771048744));
#490=CARTESIAN_POINT('Origin',(13.7461789869453,-9.44135395333784,22.0014771048744));
#491=CARTESIAN_POINT('',(15.7785731204893,-11.6541558502061,7.00147710487442));
#492=CARTESIAN_POINT('',(15.7785731204893,-11.6541558502061,22.0014771048744));
#493=CARTESIAN_POINT('Origin',(13.7461789869453,-9.44135395333783,7.00147710487442));
#494=CARTESIAN_POINT('Origin',(-25.6255541714451,-49.6826416047286,22.0014771048744));
#495=CARTESIAN_POINT('',(-25.6255541714451,-49.6826416047286,22.0014771048744));
#496=CARTESIAN_POINT('',(-2.86457079366124,-28.7773408834261,22.0014771048744));
#497=CARTESIAN_POINT('',(-25.6255541714451,-49.6826416047286,7.00147710487441));
#498=CARTESIAN_POINT('',(-25.6255541714451,-49.6826416047286,22.0014771048744));
#499=CARTESIAN_POINT('',(15.7785731204893,-11.6541558502061,7.00147710487442));
#500=CARTESIAN_POINT('Origin',(-18.8610904906833,-57.0475605527995,22.0014771048744));
#501=CARTESIAN_POINT('Origin',(-18.8610904906833,-57.0475605527995,22.0014771048744));
#502=CARTESIAN_POINT('Origin',(-18.8610904906833,-57.0475605527995,7.00147710487441));
#503=CARTESIAN_POINT('Origin',(-3.55745575186899,-8.69908184792011,7.00147710487442));
#504=CARTESIAN_POINT('Origin',(-62.3338271708079,-100.,-12.9985228951256));
#505=CARTESIAN_POINT('',(-62.3338271708079,-100.,-12.9985228951256));
#506=CARTESIAN_POINT('',(87.6661728291922,-100.,-12.9985228951256));
#507=CARTESIAN_POINT('',(-62.3338271708079,-100.,-12.9985228951256));
#508=CARTESIAN_POINT('',(87.6661728291922,-100.,22.0014771048744));
#509=CARTESIAN_POINT('',(87.6661728291922,-100.,-12.9985228951256));
#510=CARTESIAN_POINT('',(-62.3338271708079,-100.,22.0014771048744));
#511=CARTESIAN_POINT('',(-62.3338271708079,-100.,22.0014771048744));
#512=CARTESIAN_POINT('',(-62.3338271708079,-100.,-12.9985228951256));
#513=CARTESIAN_POINT('Origin',(-62.3338271708079,100.,-12.9985228951256));
#514=CARTESIAN_POINT('',(-62.3338271708079,100.,-12.9985228951256));
#515=CARTESIAN_POINT('',(-62.3338271708079,100.,-12.9985228951256));
#516=CARTESIAN_POINT('',(-62.3338271708079,100.,22.0014771048745));
#517=CARTESIAN_POINT('',(-62.3338271708079,100.,22.0014771048745));
#518=CARTESIAN_POINT('',(-62.3338271708079,100.,-12.9985228951256));
#519=CARTESIAN_POINT('Origin',(87.6661728291922,100.,-12.9985228951256));
#520=CARTESIAN_POINT('',(87.6661728291922,100.,-12.9985228951256));
#521=CARTESIAN_POINT('',(87.6661728291922,100.,-12.9985228951256));
#522=CARTESIAN_POINT('',(87.6661728291922,100.,22.0014771048745));
#523=CARTESIAN_POINT('',(87.6661728291922,100.,22.0014771048745));
#524=CARTESIAN_POINT('',(87.6661728291922,100.,-12.9985228951256));
#525=CARTESIAN_POINT('Origin',(87.6661728291922,-100.,-12.9985228951256));
#526=CARTESIAN_POINT('',(87.6661728291922,-100.,-12.9985228951256));
#527=CARTESIAN_POINT('',(87.6661728291922,-100.,22.0014771048744));
#528=CARTESIAN_POINT('Origin',(12.6661728291922,-8.88178419700125E-15,22.0014771048744));
#529=CARTESIAN_POINT('Origin',(12.6661728291922,-2.22044604925031E-15,-12.9985228951256));
#530=UNCERTAINTY_MEASURE_WITH_UNIT(LENGTH_MEASURE(0.01),#534,
'DISTANCE_ACCURACY_VALUE',
'Maximum model space distance between geometric entities at asserted c
onnectivities');
#531=UNCERTAINTY_MEASURE_WITH_UNIT(LENGTH_MEASURE(0.01),#534,
'DISTANCE_ACCURACY_VALUE',
'Maximum model space distance between geometric entities at asserted c
onnectivities');
#532=(
GEOMETRIC_REPRESENTATION_CONTEXT(3)
GLOBAL_UNCERTAINTY_ASSIGNED_CONTEXT((#530))
GLOBAL_UNIT_ASSIGNED_CONTEXT((#534,#536,#537))
REPRESENTATION_CONTEXT('','3D')
);
#533=(
GEOMETRIC_REPRESENTATION_CONTEXT(3)
GLOBAL_UNCERTAINTY_ASSIGNED_CONTEXT((#531))
GLOBAL_UNIT_ASSIGNED_CONTEXT((#534,#536,#537))
REPRESENTATION_CONTEXT('','3D')
);
#534=(
LENGTH_UNIT()
NAMED_UNIT(*)
SI_UNIT(.MILLI.,.METRE.)
);
#535=(
LENGTH_UNIT()
NAMED_UNIT(*)
SI_UNIT(.CENTI.,.METRE.)
);
#536=(
NAMED_UNIT(*)
PLANE_ANGLE_UNIT()
SI_UNIT($,.RADIAN.)
);
#537=(
NAMED_UNIT(*)
SI_UNIT($,.STERADIAN.)
SOLID_ANGLE_UNIT()
);
#538=SHAPE_DEFINITION_REPRESENTATION(#539,#540);
#539=PRODUCT_DEFINITION_SHAPE('',$,#542);
#540=SHAPE_REPRESENTATION('',(#326),#532);
#541=PRODUCT_DEFINITION_CONTEXT('part definition',#546,'design');
#542=PRODUCT_DEFINITION('Pocket_v01',
'03_Closed Pocket_planar floor, NO floor fillets, arbitrary shape_v01',
#543,#541);
#543=PRODUCT_DEFINITION_FORMATION('',$,#548);
#544=PRODUCT_RELATED_PRODUCT_CATEGORY(
'03_Closed Pocket_planar floor, NO floor fillets, arbitrary shape_v01',
'03_Closed Pocket_planar floor, NO floor fillets, arbitrary shape_v01',
(#548));
#545=APPLICATION_PROTOCOL_DEFINITION('international standard',
'automotive_design',2009,#546);
#546=APPLICATION_CONTEXT(
'Core Data for Automotive Mechanical Design Process');
#547=PRODUCT_CONTEXT('part definition',#546,'mechanical');
#548=PRODUCT('Pocket_v01',
'03_Closed Pocket_planar floor, NO floor fillets, arbitrary shape_v01',
$,(#547));
#549=PRESENTATION_STYLE_ASSIGNMENT((#550));
#550=SURFACE_STYLE_USAGE(.BOTH.,#553);
#551=SURFACE_STYLE_RENDERING_WITH_PROPERTIES($,#557,(#552));
#552=SURFACE_STYLE_TRANSPARENT(0.);
#553=SURFACE_SIDE_STYLE('',(#554,#551));
#554=SURFACE_STYLE_FILL_AREA(#555);
#555=FILL_AREA_STYLE('',(#556));
#556=FILL_AREA_STYLE_COLOUR('',#557);
#557=COLOUR_RGB('',0.749019607843137,0.749019607843137,0.749019607843137);
ENDSEC;
END-ISO-10303-21;
