        20.6            0      -2.8341
         22.8          0.4      -3.4336
           25          0.8      -3.7693
         27.2          1.2       -4.152
         29.4          1.4      -4.5354
         31.6          1.8      -4.8391
         33.8            2      -5.2107
           36          2.4      -5.6331
         38.2          2.8      -5.8168
         40.4          3.6      -5.8605
         42.6          4.6      -5.9336
         44.8          5.6      -5.7557
           47            7      -5.4002
         48.8          9.2      -4.4385
         50.2         11.4      -3.3897
         51.4         13.6      -2.1446
         53.2         15.8      -1.2165
         55.2         17.2     -0.87215
         57.4           18     -0.86342
         59.6         18.6      -1.1418
         61.8         18.8      -1.4878
           64           19      -2.0816
         66.2           19      -2.7037
         68.4           19      -3.1094
         70.6           19      -3.6132
         72.8         18.8      -3.9587
           75         19.8      -4.0665
         77.2           21      -3.8058
         79.2         22.8      -3.1068
         80.4         24.8      -2.2567
         81.8         26.8      -1.4793
         83.8         28.6     -0.71161
           86         30.2     -0.14492
         88.2         31.4     -0.10649
         90.4         32.4     -0.06333
         92.6         33.2      0.10551
         94.8         34.6     -0.30693
           97           36     -0.69945
         99.2         37.4      -1.2366
        101.4         38.6      -1.5545
        103.6         39.4      -1.7928
        105.8         40.2      -2.0196
          108           41      -2.0809
        110.2         41.6      -2.1008
        112.4         42.4      -2.2397
        114.6         43.2       -2.242
        116.8         44.2      -2.3632
          119           45      -2.4097
        121.2         45.8      -2.4013
        123.4         46.6      -2.4365
        125.6         47.4      -2.5234
        127.8         48.4      -2.4789
          130         49.4        -2.59
        132.2         50.2      -2.7649
        134.4         51.2      -2.7211
        136.6           52      -2.6302
        138.8           53      -2.6919
          141           54      -2.5806
        143.2         54.8      -2.4278
        145.4           56       -2.479
        147.4         57.4      -2.7126
        149.6           59      -2.9095
        151.6         60.8      -3.3312
        153.8         62.4      -3.6706
          156         63.4      -3.4919
        158.2         64.4      -3.4952
        160.4         65.4      -3.5264
        162.6         66.2      -3.3321
        164.8         67.2      -3.3841
          167         68.2      -3.5403
        169.2         69.2      -3.3538
        171.4         70.2      -3.4477
        173.6         71.2      -3.5066
        175.8         72.6      -3.6773
          178         73.8      -3.6825
        180.2         75.4      -4.0201
        182.4         76.4      -3.8571
        184.6         77.6      -3.8342
        186.8         78.8      -3.7302
          189         79.8      -3.3716
        191.2           81      -3.2298
        193.4         82.2      -3.1905
          193         84.2      -4.1981
        192.2         86.4      -5.6794
        191.4         88.6      -6.8084
        190.4         90.8      -8.2169
        189.6           93      -9.4071
        188.8         95.2      -10.289
        187.8         97.4      -11.109
          187         99.6      -11.741
        186.2        101.8      -11.937
        185.4          104        -11.9
        184.4        106.2      -11.669
        183.8        108.4      -10.882
        182.8        110.6      -9.9086
          182        112.8      -8.9323
        181.2          115      -7.6541
        180.4        117.2      -6.2933
        179.6        119.4      -5.3484
        178.8        121.6      -4.5895
        177.2        122.4       -3.994
          175          121      -3.9196
          173          120      -3.8917
        170.8          119      -3.7406
        168.6        118.2      -3.5887
        166.4          117      -3.4119
        164.2        116.2      -3.3289
          162        115.8      -3.1236
        159.8        115.4      -2.9077
        157.6        114.8      -2.7738
        155.4        114.2      -2.6755
        153.2        113.4      -2.6084
          151        112.4      -2.5578
        148.8        111.6      -2.5238
        146.6        110.6      -2.5528
        144.4        109.6      -2.5152
        142.2        108.8      -2.4571
          140        107.8      -2.5168
        137.8          107      -2.4995
        135.6          106      -2.4479
        133.4          106      -2.3922
        131.2          106      -2.2907
          129          106      -2.1856
        126.8        105.6      -2.1206
        124.8        104.8      -2.1017
        122.6          104      -1.9706
        120.4          103       -1.857
        118.2          102      -1.8053
        116.2          101      -1.6449
          114         99.8      -1.5745
        111.8         98.8      -1.6202
        109.6         97.8      -1.4304
        107.4         96.6      -1.4921
        105.2         95.6      -1.5206
          103         94.8      -1.3808
        100.8           94      -1.3293
         98.6         92.8      -1.4326
         96.4           92       -1.232
         94.4         90.8      -1.1751
         92.4         89.6      -1.1763
         90.2         88.8     -0.97264
           88         87.8     -0.93283
         85.8         86.8     -0.91254
         83.8         85.8     -0.81874
         81.6           86     -0.80161
         79.4           86     -0.76125
         77.2           86      -0.8122
           75         86.2     -0.78932
         72.8         86.2     -0.75584
         70.6         85.6     -0.82332
         68.4         84.6     -0.94778
         66.2         83.8     -0.99596
           64         83.2      -1.0102
         61.8         82.2      -1.0131
         59.6         81.2      -0.9638
         57.4           80     -0.73524
         55.4           79     -0.64276
         53.2         77.8     -0.53059
           51         76.2      -0.2145
           49         74.8     -0.25857
           47         73.4     -0.18134
         44.8         72.8      -0.2958
         42.6         72.2      -0.6362
         40.4           72      -0.9728
         38.2         71.8      -1.3799
           36           72      -1.9461
         33.8         72.2      -2.4693
         31.6           72      -3.0788
         29.4         71.8      -3.5619
         27.2           72      -4.0474
           25         71.4      -4.3413
         22.8         70.6      -4.2997
         20.8         69.2      -3.9954
           19         67.4      -3.3018
           18         65.2      -2.5214
           17           63      -1.7499
         15.4         61.2     -0.93399
         13.6         59.6     -0.51474
         11.6         58.4     -0.23874
          9.4         57.4     -0.19036
          7.2         56.6     -0.14454
            5         55.8     -0.19122
          2.8         54.8     -0.26901
          0.6           54     -0.34393
          0.4         52.2     -0.63647
          1.4           50      -1.0834
          2.2         47.8      -1.5535
            3         45.6      -2.2612
          3.8         43.4      -2.9907
          4.6         41.2      -3.7267
          5.6           39      -4.2996
          6.4         36.8      -4.9951
          7.2         34.6      -5.2642
            8         32.4      -5.3993
            9         30.2      -5.3972
          9.8           28      -5.2125
         10.6         25.8      -4.8667
         11.4         23.6      -4.8294
         12.4         21.4      -5.1933
         13.2         19.2      -5.8297
           14           17      -6.4315
         14.8         14.8      -6.7518
         15.6         12.6      -6.6781
         16.6         10.4       -6.619
         17.4          8.2      -6.2728
         18.2            6      -5.4542
         19.2          3.8      -4.6565
           20          1.6      -3.6592
       39.486       69.854      -1.6518
       62.714       20.946      -2.2767
       57.319       77.662      -0.7672
       41.686       70.054      -1.1077
       60.514       20.746       -1.691
       53.022       18.183     -0.89487
         78.3       83.946     -0.85233
       11.331       29.802      -5.1776
       46.441       71.118     -0.48665
       57.959       20.282       -1.139
       17.736       60.735      -1.4324
       68.002       82.269      -1.0326
       49.178       72.417     -0.26955
       55.598       19.531     -0.81986
        61.55        79.83       -1.002
        88.45        33.77     -0.99212
       86.116       32.604     -0.94748
       118.12       99.662      -1.8128
       81.426       29.227      -1.2474
       83.692       31.062      -1.0193
        134.5       103.95      -2.6857
        134.8       53.531      -3.9854
        130.4       51.731        -3.93
        124.4       102.47      -2.1229
        123.8       48.931       -3.654
       120.15       100.63      -1.9317
        121.6       48.131      -3.6804
        104.8       93.269      -1.5552
       139.05        55.37      -3.8396
        119.4       47.331      -3.6345
       94.797       37.033      -1.6776
       108.56       43.282      -3.3847
       85.719       84.462       -1.099
       113.75        97.43      -1.6661
       94.457       88.438      -1.2569
       111.55        96.43      -1.6301
       107.15        94.23      -1.5711
       128.05        50.77      -3.8557
        112.8       44.731      -3.4166
       116.08       98.596      -1.8597
       92.002       87.269      -1.1359
        106.2       42.531      -3.2787
       12.931       25.402      -4.5733
          104       41.731      -3.0969
        87.75        85.43      -1.0533
        10.37        32.15      -5.2776
       99.316       39.804      -2.6432
       15.865       58.864     -0.74933
        132.3       103.95      -2.4998
       149.23       61.427      -4.3719
       157.04       112.52      -3.1012
        139.6       105.47      -2.7367
        160.8       67.731      -4.6681
        150.6       110.07      -3.0178
          144       107.27      -2.8588
       161.27       113.58      -3.5806
       154.05        64.77      -4.8744
       36.914       69.854      -2.3157
       156.25        65.77      -4.8288
       146.35       108.23      -2.8725
       165.05        69.57      -4.6434
       158.45        66.77      -4.7484
       167.25        70.57      -4.7414
       169.45        71.57      -4.8111
       184.67       99.998      -11.883
       151.49       63.262        -4.75
       14.731       21.002      -5.0423
         65.1       21.054      -2.7559
       15.531       18.802      -5.6887
       8.7308       36.402      -4.9559
        50.71       16.001      -1.5961
       185.47       97.798      -11.513
        40.65       5.9703      -6.0193
       175.92       75.004       -5.002
       55.284       76.596     -0.49938
       145.22       58.383      -3.8135
       48.996       13.484      -2.7772
       34.532       4.2213      -5.9441
         67.3       21.054      -3.3169
       17.131       14.402      -6.6867
       30.686       69.854      -3.7575
       13.657       57.238     -0.48546
        141.4       56.331      -3.8837
       79.417       26.978      -2.1382
       186.43        95.45      -10.792
       65.641       81.518      -1.0857
       180.45        77.77      -5.1305
          166       114.67      -4.0288
       75.914       84.054     -0.78634
       182.12       106.76      -11.084
       36.732       4.6213      -5.9579
       6.9703        40.95      -3.9671
        19.37        63.25      -2.3582
        42.85       6.9703      -5.8206
       32.886       70.054      -3.2082
       30.132       3.6213      -5.5149
        130.1       103.95      -2.3993
       18.931       10.002      -6.5258
        11.35        56.03     -0.32083
        70.35        83.23     -0.93159
       90.798       34.731      -1.1262
       180.47          111      -9.3298
       168.48        115.8      -4.2517
       5.3308       45.202      -2.5634
       184.72       80.004      -4.8704
       75.116       22.204      -3.8835
       24.602       69.069      -4.3015
       19.731       7.8021      -6.3073
       9.0021       55.069     -0.39017
       78.038       24.857      -3.0842
       189.03        88.85      -7.7207
       4.5308       47.402      -1.8744
       25.732       3.0213      -4.8211
       187.05        81.17      -4.7505
        20.37        65.45      -3.1727
       172.75       117.63      -4.4696
       6.8021       54.269     -0.46345
       28.114       69.854       -4.207
       178.87        115.4      -6.9142
       71.886       20.946      -3.9856
       23.532       2.6213      -4.4453
       190.67       84.598      -5.1214
       2.7703        51.95     -0.72245
       177.08       120.16      -4.6051
       40.772       67.908      -1.8125
       61.428       22.892      -2.3825
       57.255        75.31     -0.76662
         38.2       67.799      -2.5575
       67.444       79.936      -1.1312
       56.156       21.864      -1.2124
       12.752       31.754      -5.1994
       18.253       58.347      -1.1142
       86.364       35.025      -2.1563
       120.02       98.291      -2.2122
        133.4       101.89      -3.0076
       63.814       23.053      -3.0287
        58.87       22.535      -1.8727
       88.846       36.152      -2.3329
       53.357       20.677     -0.85484
       83.801       33.566      -1.7865
       81.266       31.741      -1.6349
          122       50.462      -4.9375
        119.8       49.662      -4.9135
        113.5       95.059       -2.004
       87.618       83.091      -1.4141
       139.45       57.752      -5.0838
        48.69       69.911     -0.54602
        104.4       44.062      -4.5466
       128.45       53.152      -5.0702
       106.75       91.848      -1.9177
       115.84       96.175      -1.9645
       106.76       44.864      -4.5799
       94.113       85.999      -1.7086
        154.3       67.141      -5.9532
        156.5       68.141      -5.9872
        165.3       71.941      -6.0849
        167.5       72.941      -5.9282
       149.07       63.941      -5.6685
       50.456       18.586      -1.2183
       158.85       69.152      -6.0005
       145.95       105.85        -3.47
       17.062       20.604      -4.9025
       151.73       65.786      -5.9511
       77.014       81.947     -0.96426
       183.14       98.196      -11.845
       78.889       29.471      -2.0898
       31.972       67.908      -3.9193
       35.265       6.4427      -6.1122
       48.155       15.898       -2.139
       15.979       56.397     -0.62136
        131.2       101.89      -2.7435
       69.954       80.848      -1.0932
       20.275       60.873      -2.1577
       184.05       95.846      -11.264
         40.9       8.3407      -5.8967
       13.457       54.814     -0.62652
       77.005       27.037      -2.9462
         29.4       67.799      -4.2451
       168.09       113.36      -5.0129
       21.741         63.5      -3.0852
       21.262       9.6042      -6.4763
       10.954       53.648     -0.72572
       6.8616       47.004      -2.1506
       184.96       82.425      -6.0099
       100.68       91.596      -1.4319
       82.514       83.854      -0.9149
       98.202       90.469      -1.3766
       24.265       4.8427      -5.4716
        46.31        9.401      -4.9555
       136.86          104      -2.8864
       182.77       104.48      -11.755
       173.81       73.901      -4.8953
       178.28       76.801      -5.2239
       97.206       38.701      -2.2568
       175.27       118.67      -4.6579
       188.07       91.198      -9.0162
       152.83       110.89      -2.9991
       101.39       40.981      -3.1567
       147.16       59.764       -4.016
       44.132        70.28     -0.68176
       109.42       95.189       -1.724
       163.71        113.8      -3.8691
       8.0331       38.747      -4.4785
       3.8331       49.747      -1.1926
       51.213       73.767     -0.39457
       177.75       117.81        -5.46
       126.56        103.3      -2.2144
       171.63       72.606      -4.6532
       59.428       78.759     -0.86214
       182.57       78.903      -5.1085
       13.913       23.236      -4.5127
       18.113       12.236      -6.6256
       132.56       52.713      -3.9782
       141.84       106.29      -2.8707
       179.69       113.21      -8.1271
       183.89       102.21      -12.013
       12.105       27.593      -4.9401
       16.305       16.593      -6.3729
       117.21       46.505      -3.5958
        53.23       75.446     -0.46394
       170.63       116.68      -4.3587
       69.594       21.062      -3.8308
       122.25       101.61      -2.0463
       89.851       86.407      -1.1495
       125.95       49.793       -3.664
       136.95       54.393      -3.9391
       162.95       68.593       -4.721
       148.45       109.21       -2.925
       189.17        82.11      -4.4832
       9.4521       34.238       -5.187
       6.0521       43.038      -3.2129
       189.95       86.762      -6.4046
       92.836       35.814      -1.2946
       181.31       108.88      -10.436
       21.406       3.3567      -4.5929
       110.72       43.886      -3.3448
       187.42       93.452      -9.9067
       32.336        3.895      -5.8604
       27.936        3.295      -5.1846
       4.6761       53.593     -0.43408
       114.92       45.407      -3.4459
       20.407       5.6761      -5.5559
       63.536       80.819      -1.1165
       159.11       113.22      -3.2581
       143.47       57.054      -3.6938
       154.92       112.09       -2.898
         73.9       84.464     -0.83448
       38.805       4.9665      -5.9884
        191.6        82.88      -3.9676
       34.916       70.271      -2.6991
       77.002       23.063      -3.5675
       22.684       68.637      -4.2377
        26.24       69.989      -4.2598
       73.699       21.068      -4.0221
       62.483       25.022      -3.2899
       39.573       65.801      -2.7844
        132.3       99.837      -3.2911
       59.865       24.749      -2.5888
       69.401       78.461      -1.2633
       86.755       37.459       -3.291
       57.019       24.194      -1.9261
       120.19       51.992      -6.1322
       84.067       36.081      -3.1381
       81.333       34.321      -2.6685
       53.954       23.162      -1.1847
       115.55       93.764      -2.3718
       78.659       32.092      -2.2837
       104.91       46.408      -5.6492
        97.31       41.073      -3.7332
       154.55       69.511      -7.1929
       165.55       74.311      -7.1886
       156.86       70.533      -7.1245
       20.868       58.326       -1.717
       152.06       68.281       -7.166
       18.454       55.813     -0.92739
       162.67       111.64      -4.3845
       149.23       66.552      -6.9275
       181.68       96.279       -11.66
       47.745       18.578      -1.6206
        15.81       53.865     -0.92985
       173.91       76.273      -6.1205
       76.322       29.512      -2.7423
       178.53       79.161      -6.4318
       30.773       65.801      -4.3683
       180.47       105.06      -11.432
       152.42       108.55      -3.6074
       113.24       47.027      -4.6313
       100.29       89.162      -1.7291
       10.351        38.16      -4.6597
       9.3522       40.741      -4.0282
       22.802       61.185      -2.8226
        139.2       102.92       -3.363
       94.832       39.556      -3.2023
       13.073       52.369      -1.0239
       156.39       110.29      -3.6504
       15.293       25.167      -4.3628
       19.493       14.167      -6.5665
       132.97       55.051      -5.1974
          145       60.746      -5.2003
       178.14       111.42      -8.6282
        68.44       23.113      -3.8302
       70.844       23.056      -4.0482
       61.414        77.46      -1.0155
       28.732       5.4903      -6.0499
       172.53       115.28      -5.2964
       126.22       100.97       -2.445
       186.65       89.246      -8.4755
       30.981        5.797      -6.0461
       171.67       75.018      -6.1697
       110.99       46.212      -4.6199
       181.49       102.44      -11.882
       185.77       91.754      -9.7422
       53.536       73.028     -0.45136
       46.636       14.015      -3.1426
       24.094       66.849       -4.178
       96.319       86.932      -1.6347
       85.465       82.111      -1.2891
       104.57       90.898       -1.764
       79.384       81.834       -1.029
        174.8       116.25      -5.4674
       6.3622       51.973      -0.8409
       51.332        71.38     -0.54208
       26.427       67.738      -4.3974
       35.496       68.051       -3.185
       75.207       24.503      -3.7223
       72.179       81.702     -0.92457
       45.987       68.768     -0.75217
       43.056       9.3365       -5.667
        147.1       62.554      -5.5112
       165.59       112.31      -4.8845
       91.692       84.931      -1.4395
       128.84       101.95      -2.5115
       126.13       52.145       -5.058
       38.745       7.2731      -6.0105
       8.6042       52.738     -0.77244
       182.71        81.28      -6.2012
       108.98       92.702      -1.9462
       170.38       114.24      -5.2559
       161.07       70.159      -5.9604
       22.062       7.3733      -6.2226
       47.782       11.393       -3.893
       102.15       43.246      -4.2779
       117.58       48.841      -4.8552
       143.77        104.9      -3.4036
       130.63         54.1      -5.2256
       20.441       11.822      -6.5621
       16.241       22.822      -4.3887
       43.092       68.188      -1.3244
       135.73       101.97      -3.2102
       117.95       97.182      -2.0436
       6.0238       49.122       -1.465
       111.43       94.187      -1.8541
       102.68       92.594      -1.5823
        44.87       7.7726      -5.6954
       96.216       89.662      -1.3959
       80.412       84.136     -0.87342
       72.075       84.524      -0.8765
       128.17       104.29      -2.2686
       22.306       5.1187      -5.5024
        51.93         19.6     -0.91685
        60.96       26.929      -3.3831
       53.664       70.558     -0.87845
       51.009        68.85     -0.75113
        108.6       90.357      -2.2716
       48.139       67.447     -0.95493
       58.049       26.488      -2.7873
       96.016       84.573      -2.0273
       131.03       56.479      -6.2871
       87.393       80.731      -1.9604
       81.588       36.928       -3.814
       84.474       38.598      -4.2756
       21.142       55.646      -1.2349
       78.681       34.785      -3.2094
       93.731       83.585      -2.0427
       54.831       25.625      -1.9457
       145.68       103.49      -4.3121
       17.672       24.764      -4.1881
       154.87       71.901      -8.3125
       94.998       42.067       -4.588
       152.39       70.738       -8.237
       149.57        69.17      -8.1564
       75.967       32.181      -2.9658
        18.35       53.185     -0.65326
        38.91       9.6478      -6.0087
       164.59       109.98      -5.6905
       179.07          103      -11.654
       23.537       58.604      -2.4995
       78.101       79.839      -1.3456
       111.41       48.551      -5.8171
       21.872       13.764      -6.4458
       126.47       54.532      -6.2919
       171.78       77.438      -7.3982
       11.768       40.192      -4.3078
       167.63       110.94       -6.064
       15.427       51.315      -1.3434
        144.7       63.207      -6.4569
       29.579       7.6793      -6.1904
       41.116       10.704        -5.56
       44.943       66.463      -1.3632
       184.27       89.821      -9.2666
       119.96       95.927      -2.4649
       69.691       25.138      -4.1718
       182.91       83.685      -7.2071
       23.596       9.1824      -6.4052
       111.27       91.687      -2.3903
       172.35       112.91       -6.322
        88.89       38.548      -3.5347
       67.186       77.558       -1.307
       50.028       20.786      -1.0554
       25.992       65.373      -4.2639
       64.851       25.188      -3.6442
       8.3532       48.819      -1.8037
       128.25       99.534      -2.8069
       182.49       94.042      -11.098
       180.77       98.483      -11.951
       107.15       47.211      -5.7657
       167.71       75.307      -7.3199
       163.38       73.341      -7.1554
       122.42       52.793      -6.1489
       24.139       63.199      -3.7135
       74.683       27.728      -3.5369
       188.36        85.03      -6.1139
       45.796       16.247       -2.514
       33.158       65.838      -4.0769
       37.193       65.637      -3.4701
        146.9       64.927      -6.7821
       176.36       78.193      -6.5149
       10.952       51.249      -1.2257
       99.821        42.77      -4.2446
       45.394       11.618      -4.3257
       73.106        23.26      -4.0612
       141.76       58.632      -4.9228
       13.657       29.377       -4.933
       71.802       79.357      -1.1915
       148.27       106.86      -3.4794
       137.13       56.745       -5.186
       92.732       38.168      -2.7357
       158.74       110.92      -3.9301
       74.484       82.182     -0.91914
       11.792       34.021      -5.1532
       141.61       103.92      -3.4159
       117.78       94.823      -2.5054
       102.57       45.585      -5.4986
       178.93       109.17      -9.7126
       159.08       71.605      -7.1909
       7.6587       44.776        -2.87
       65.231       79.232      -1.1389
       17.857       18.377      -5.5774
       117.98       51.172       -6.107
       115.38       47.992      -4.7413
       134.63       99.911      -3.5954
       59.299       76.431     -0.80863
       180.63       80.202      -6.2798
         66.2       23.009      -3.5202
       169.63       73.894      -5.9708
       124.06       100.21      -2.3119
       177.43       113.61      -7.3877
       163.22       70.961      -5.9245
       182.42       100.36       -11.94
       102.41        90.07      -1.6897
       89.591       84.152      -1.4658
        33.16       5.9054      -6.0807
       124.13       51.146      -4.9382
       97.903       88.359      -1.5911
       108.89       45.478      -4.4948
       55.254       74.398     -0.62802
       184.93        93.81       -10.47
       21.243        67.25       -3.745
       154.41       109.41      -3.6179
       81.247       82.383      -1.0737
       176.86       115.93       -5.978
       37.108        6.426      -6.0997
       4.5695        51.46     -0.84715
       33.715       68.433      -3.4688
        137.5       102.31      -3.2804
       84.254       83.431      -1.1029
       49.103       17.415      -1.6043
       38.524       63.669      -3.6344
       69.069       76.107      -1.5608
       119.79       93.542      -3.0472
       118.37       53.509      -7.2374
       120.62       54.326      -7.2495
       117.55       92.439      -3.0239
       133.53        97.82       -4.197
       105.34       48.743      -6.7552
       59.197        28.74      -3.6248
       95.689       82.193      -2.6308
       53.448       67.977      -1.2651
       103.06       47.935      -6.7554
       50.476       66.303      -1.3443
       154.24        107.1      -4.4245
       82.002       39.542      -5.0361
       165.77       76.674      -8.3881
       110.85       89.183      -2.9942
       55.908       28.041      -2.8677
       47.146       64.992       -1.519
       47.459       21.159      -1.4363
       152.76        73.18      -9.1913
        71.32       76.984       -1.629
       179.32       96.602      -11.942
       45.194        18.73      -1.9866
       149.98        71.75      -9.0779
       156.23       107.97      -4.4971
       15.125       31.297      -5.0396
       137.47       59.132      -6.2991
       39.126       12.029      -5.3735
       176.61       80.553      -7.6216
       14.164       33.689      -5.1082
       102.16       87.727      -2.0111
       144.53       65.683      -7.7562
       59.265       74.069      -1.0498
       17.996       50.519      -1.2429
       139.05       100.69      -4.1377
       166.73        108.5      -7.1247
       31.997       63.765      -4.4641
       19.394       20.182       -4.793
       141.19       101.53      -4.1503
       139.87       60.112      -6.2034
       85.233       79.751      -2.0404
       52.457       25.083      -1.4986
       33.704       8.1647      -6.1396
       57.106       72.984     -0.81776
        176.6       109.62      -9.0555
       99.753       86.813      -1.8849
       12.745       38.001      -4.6841
       11.015        42.47      -3.7075
       178.07       105.19      -10.936
       162.28       109.26      -5.4997
       133.22       57.421      -6.4308
       16.825       26.991      -4.4723
       21.025       15.991      -6.0745
       80.896       80.138      -1.4618
       122.04       97.057      -2.5765
       184.98       87.537      -8.2869
       147.36       68.128      -8.1385
        27.24       7.3261      -6.2033
       36.205       8.4887      -6.1071
       44.293       14.407      -3.4061
       64.872       76.835      -1.2702
       25.182       61.056      -3.5089
        73.99        30.01      -3.3598
       185.01       84.807      -7.1187
       142.81       61.736      -6.2844
       12.971       49.992      -1.6165
       96.965       43.458       -5.083
       137.01       100.12      -3.9342
       92.865       40.947       -4.202
       86.889       39.833      -4.5556
       42.617       65.822      -1.9331
       91.355       82.615      -1.8092
       83.297       81.337      -1.3422
       125.82       98.649      -2.6474
       63.524       27.154      -3.8949
       170.22       111.88      -6.3097
       75.732       79.951      -1.2081
       18.578       22.426      -4.3654
       73.111       25.649      -3.9169
       173.83       78.657       -7.501
        128.8       55.631       -6.356
       147.95       104.42      -4.3396
       67.223       25.149      -3.9861
       22.875       11.527      -6.4418
       157.06        72.95      -8.4041
       9.2157        46.59      -2.4772
       115.73       50.356      -6.0211
       28.379       65.628      -4.4349
       179.81        100.7      -11.991
       113.43       92.679      -2.3564
       174.44       113.95      -6.4865
       183.53       92.043      -10.215
       106.44       89.572      -2.2202
       169.77       76.323      -7.2231
       161.23       72.474      -7.3135
       22.458       65.549      -3.7306
       109.31       47.634      -5.7149
       14.338       27.219      -4.6275
       18.538       16.219      -6.2366
       51.747       22.378       -1.029
       187.52       87.146      -7.3229
       150.29       107.84      -3.4402
       135.11       55.759      -4.9891
       113.53       49.236      -5.8751
        43.17       11.558        -4.91
       24.261       7.0635       -6.257
       90.947        36.91      -2.2565
       179.99       107.17      -10.634
       10.898        36.03      -4.9798
       8.3224       42.682      -3.5789
       124.48       53.596       -6.157
       186.95       83.358      -5.6993
       100.63       44.727      -5.4043
       130.25       100.06      -2.9386
       160.64       111.64      -4.0061
       8.0113       50.809      -1.1824
        35.19       66.033      -3.7073
       22.343       57.123       -1.891
       19.718       54.447      -0.7571
       77.356       33.449      -2.9405
       80.216       35.746      -3.5641
        76.56       35.564      -3.8851
       23.337       55.089      -1.6975
        70.94       74.631      -2.2679
       129.19       57.975      -7.4859
       119.58       91.146      -3.9601
       87.163        78.37      -2.6509
       118.79       55.848      -7.4582
       24.539       56.574      -2.3649
       19.169       26.607      -4.2949
       103.51       50.275      -7.3011
        52.97        65.35      -1.7967
       156.06       105.66      -5.6105
       16.551       33.258      -5.1501
       79.718       77.946       -1.979
       57.126         30.4      -3.7359
        147.6       102.05      -5.4361
        20.04       24.338      -3.8793
       94.796        44.44      -5.8337
       140.87       99.194       -5.195
       44.824       21.346      -1.8531
       150.43       74.291      -9.5412
        73.46       32.479      -3.3821
       111.84       50.849      -6.9921
       174.06       81.301      -8.6074
       138.58       98.425      -4.9719
       23.369       15.607      -5.8633
       126.76        56.94      -7.3875
       137.89       61.524      -7.3679
       59.108       71.691      -1.2699
        176.7       103.24      -11.296
       101.69       85.349      -2.7324
       14.133       39.934      -4.3695
       181.95       90.287      -9.9855
       26.065       58.685      -3.2001
       21.754       53.475     -0.81022
       76.819       77.843      -1.7736
       78.358       37.007      -4.3055
       127.74       97.162      -3.3995
       161.54       74.813      -8.3274
       68.466       27.198      -4.2073
       140.35       62.722      -7.3479
       109.54       49.976      -6.8392
       28.103       9.5341      -6.3189
       34.691       10.364      -6.1402
       25.199       10.958      -6.3678
       97.888       83.103      -2.6851
       55.603       69.097      -1.1964
       172.18       110.55      -7.5721
       50.115       24.253      -1.3101
           89       40.919      -4.7587
       16.104       48.954      -1.9892
       35.793       63.819      -4.0508
       83.971       40.989      -5.3541
       108.22       88.034       -3.044
       169.11       109.01      -7.4439
       44.326       64.162      -2.0493
       27.403       63.458       -4.332
       61.551       29.267      -4.0701
       164.05       107.65      -6.7409
       53.187       27.357        -2.21
       73.574       77.761      -1.6199
       43.454       16.627      -2.7694
       72.371       28.272       -3.857
       147.59       70.507       -9.019
       100.77       47.034      -6.4932
       113.21       90.315      -2.9639
       66.874       75.205      -1.5597
        41.82       13.736      -4.2166
       40.892       63.828      -2.9713
       159.38       73.944      -8.3604
        93.52       81.215      -2.6065
       150.18        105.5      -4.3579
       155.08       74.278      -9.1988
       10.701       48.446       -1.966
        135.9        97.91      -4.6041
       180.67        82.66      -7.4907
       121.98       94.686      -3.1959
        143.5       102.36      -4.3196
       104.33       88.576      -2.2425
       116.16       52.682      -7.2708
       115.42       91.404      -3.1034
       178.44       98.784      -12.011
       177.38       107.42      -10.065
       82.978       78.973      -1.9939
       13.109        35.81      -5.0197
       180.23       94.485      -11.524
       15.959       29.138      -4.8442
       9.8045       44.304      -3.1177
       135.37        58.21      -6.3387
       26.502       5.1433      -5.8275
       61.195       75.223      -1.0892
          122       99.407      -2.1884
       20.084       18.037      -5.4194
       89.344       81.736      -1.7985
       97.989       85.518       -2.073
        160.3       109.65      -4.7202
       63.231       78.544      -1.0986
        31.66        7.766      -6.2469
        73.68       80.269      -1.1169
       98.699       44.383      -5.3475
       157.99       109.02      -4.4364
       55.307       71.881     -0.88035
       143.56       59.415      -4.8362
       24.204       65.031      -3.9733
       146.15       66.669      -7.8317
       186.64       85.573       -6.958
       71.493       24.776      -4.0537
       48.764       65.766      -1.2722
       25.535       54.539      -2.2817
       24.012       52.843      -1.5594
       39.845       61.699      -3.7765
       76.173       37.887      -4.7853
       81.769       41.921      -6.1093
       97.574        80.75      -3.5285
       127.17       59.347      -7.5602
       138.22       63.969      -8.3589
       134.79       95.812      -5.2856
       46.316       62.606      -2.1531
       42.808        61.95      -3.0742
       110.36       86.726      -3.8403
       21.523       26.209      -3.8758
       26.967       56.426      -3.0078
       176.98        96.92      -12.061
       137.63        96.15      -5.8669
       140.38       96.861      -6.1995
       37.046       61.693      -4.2171
       177.89       94.734      -11.826
       109.96       52.333      -7.5615
       78.341       75.841      -2.6032
        18.36       48.154      -2.0758
       166.01       106.12      -8.1394
       159.69       76.284      -9.3234
       81.965         76.5       -2.791
       133.59       59.744         -7.4
       39.374       14.618      -4.2713
       169.78       78.678      -8.5253
       21.695       19.739      -4.6771
       144.27       67.931      -8.6369
       175.91       82.898      -8.8204
       121.02       56.665      -7.5286
       160.89       107.44      -5.9454
       64.039       29.613      -4.3152
       12.124       44.519      -3.1965
       171.56       107.94      -8.6047
       180.93        85.04       -8.405
       75.249       75.748      -2.3012
       105.75       51.084       -7.448
       175.06       107.82      -9.4293
       46.286       23.302       -1.667
       153.87       104.77      -5.5648
       98.116       46.974       -6.739
       87.005       42.203      -5.6437
       12.992       47.521       -2.372
       42.974        19.75       -2.073
       54.692       30.163      -3.3521
       125.52       96.283      -3.2103
       14.953       37.242       -4.831
       64.576       74.427      -1.4566
       59.925       31.008      -4.2305
       153.04       75.585      -9.7564
       55.473       66.714      -1.9797
       148.18       73.378      -9.5638
       50.866       26.847       -1.929
       27.549       60.588      -3.9538
       131.05       97.905       -3.652
       71.677       30.542      -3.9496
       30.534       9.7753      -6.2311
       91.173       80.293      -2.6716
        149.8       102.93      -5.4323
       157.21       75.321      -9.2442
       61.284       72.882      -1.2454
       121.73       92.158      -3.8524
        142.5       64.094      -7.4922
       101.27       49.496      -7.1938
       17.458       30.958      -4.9182
       24.526       13.238       -6.382
          104       86.238       -2.786
       20.917       22.006      -4.0043
       124.57       55.985      -7.4072
        65.89        27.32      -4.2152
       175.79       111.87      -7.7925
       177.42       100.96      -11.877
       116.54       55.044      -7.4769
       36.973       11.024      -5.9384
       68.745       73.772      -2.1339
       113.95       51.884      -7.1259
       70.956       26.769       -4.146
       143.02       100.08       -5.286
       90.937       39.641       -3.838
       163.68       75.674      -8.4133
       180.99       92.342      -10.853
       29.692       63.733      -4.4744
       20.201       51.583     -0.39137
       131.35       58.757      -7.4535
       178.71       81.432      -7.4243
       145.47       101.22      -5.3131
       57.162       70.875      -1.1458
       152.17       106.38      -4.3812
       13.152       41.913      -3.8702
       107.43        49.38      -6.8654
       99.783       84.233      -2.6178
       106.16       87.443      -2.7258
       25.622       8.6547      -6.2999
       93.096         43.1      -5.5218
       74.925       34.107      -3.4543
        80.01       38.518      -4.7355
       48.972       22.547      -1.2876
       33.891       64.066      -4.3185
       9.7357       49.945      -1.4977
       26.302       52.318       -2.192
       70.591       72.288      -2.8984
        55.71       32.326      -4.1006
       55.205       64.228      -2.7029
       121.53       89.793      -4.9218
         41.5       59.778      -3.9188
       116.97       57.381      -7.1397
       101.72       51.826      -7.0875
       27.888       54.241      -2.9155
       155.74       103.31      -6.7421
       76.857       73.741        -3.42
       149.46       100.58      -6.6106
        38.45       59.641      -4.3762
       18.916       32.862      -5.0211
       175.54       95.036      -12.056
       136.45       93.941      -6.6724
       148.53       75.738      -9.7072
       139.51       94.517      -7.1961
       150.82       76.779      -9.8341
       43.909       23.554      -1.7913
       173.64       83.655      -9.5326
       61.183       70.485       -1.831
       103.58       83.876      -3.5159
       127.39       94.812      -4.0357
       92.674       45.383      -6.5288
       25.794       15.324      -5.6312
       72.666       34.667      -4.0306
       16.508       39.187      -4.5199
       157.71       77.717       -9.804
        175.1       101.48      -11.513
       71.057       32.901      -3.8469
       145.11       98.785      -6.4722
       23.249       21.539      -3.7489
       93.097       78.842      -3.4766
       115.22       89.015      -3.9243
       179.61       90.441      -10.616
       131.64        61.13      -8.3441
       163.84       78.026      -9.3096
       15.484       41.835      -3.9281
       106.08       85.046      -3.7157
       35.262       12.668      -5.6978
       145.88        72.36      -9.5714
       58.929       69.388      -1.6079
       29.116       11.699      -6.2155
       33.266       61.886      -4.5436
       50.236       64.074      -1.9012
       163.76       105.27      -7.9759
       16.545       46.618       -2.591
       14.549        43.97      -3.4041
        83.67       43.347      -6.5538
       20.689       28.434      -4.3996
       136.02       63.018      -8.3829
       89.114       43.289      -5.9949
       26.833        12.68      -6.2862
       30.874       61.695      -4.5437
       51.585       29.109      -2.6553
       67.275       29.311      -4.4503
       48.517       26.121      -1.8941
        123.9       93.222      -3.9148
       169.52       106.59      -8.7669
       41.183       17.877      -2.8208
       112.62       87.553      -4.1149
        178.6       83.788      -8.4438
       84.373       76.958      -2.8657
       62.239        31.54      -4.5315
       132.42       95.723      -4.8602
       66.561       72.857      -1.9707
        158.2       106.66      -5.5417
       142.36       66.571      -8.5269
       124.84       58.346      -7.4298
       22.392       23.998      -3.5879
       74.356       36.391       -4.392
       155.21        76.72      -9.8875
       175.64       105.45      -10.429
       28.474       58.337      -3.7946
       171.82       80.161       -8.543
       70.239       28.861      -4.1646
       140.33       65.126      -8.3999
       114.37       54.181      -7.4599
       18.323       28.786      -4.6355
       182.72       88.089       -9.019
       95.422       79.892      -3.5122
       176.18       99.052      -12.006
       174.37       109.98      -8.3638
       107.98       51.472      -7.5329
       167.84       77.551      -8.3232
       73.013       75.504       -2.237
       112.06       53.061      -7.5083
       22.502       17.661      -5.1653
        89.15       79.368      -2.6388
        77.94       39.122      -5.1782
       178.87       92.801      -11.404
       22.383       51.375     -0.95142
        122.8       54.858       -7.194
       151.79       103.96      -5.3757
       15.672       35.218      -5.0509
       80.216       40.568      -5.5768
       97.056       45.374      -6.0571
       123.81       98.146      -2.5881
       32.627        9.969      -6.1535
       62.968       76.178      -1.1251
       11.244       46.489       -2.586
       19.805       49.586      -1.4775
       99.407       48.593      -7.1766
       80.156       76.157      -2.7371
       14.304       48.768      -1.9685
       129.28       98.073       -3.334
       44.541       62.387      -2.5406
        75.88       40.189      -5.6873
       73.958       38.725      -5.2798
       79.643       42.793      -6.5518
        28.68       51.972      -2.8438
       81.486       44.277      -6.6931
       125.19       60.733      -6.9217
        136.3       65.379      -9.2508
        112.2        85.21      -5.1439
       40.067       57.657      -4.4896
       97.259       78.412      -4.5833
       95.105       77.494      -4.5691
        105.7         82.6      -4.7198
       72.044       36.968      -4.5741
        23.03       28.042       -4.061
       83.553       74.711      -3.8387
       110.34       54.638      -7.1163
       114.93       86.494      -5.1145
       20.529       47.411      -2.3333
       24.761       23.445      -3.1864
       86.696       75.831      -3.8399
       148.83       78.128      -9.8624
       138.36        92.21      -8.1002
       108.15       53.787      -7.1731
       60.955       68.089      -2.5487
       70.342       35.168      -4.2122
        155.7       79.127      -9.8176
       22.265       48.792      -1.9458
       165.61       103.77      -8.9735
       97.155       49.064      -7.2221
       169.59       81.079      -9.4339
       60.622       33.277      -4.7914
       40.594       20.233      -2.2393
       17.912       41.253      -4.0842
        45.68       60.457       -2.957
       18.779       45.817      -2.8837
       173.76       99.432      -11.863
       177.28       91.006      -11.244
       141.87       94.981      -7.6404
       57.382        65.25      -2.7058
       175.43       85.225       -9.826
       64.641       31.979      -4.7141
       32.234       59.743      -4.5393
       95.873       47.309      -6.9846
        87.12       44.573      -6.7098
       119.38       88.781      -4.9381
       53.342       32.119      -3.8104
        159.9       78.666      -9.9122
       36.053       59.507      -4.5615
       171.67       105.55      -9.5866
       28.785       14.077      -5.7405
       160.12       105.08      -7.0215
       178.79       86.224      -9.3592
       79.601       73.975      -3.6281
       45.314       25.471      -1.8605
       53.166       62.953      -2.7499
       63.286       71.597      -1.7964
       129.97       95.944      -4.1779
       133.68       93.715      -6.0625
       99.888       81.904      -3.6326
       99.444       50.894      -6.9108
       49.268       28.601       -2.429
       153.17       77.973      -9.7399
       151.74       101.62      -6.7136
       69.397       31.037      -4.2162
       74.354       73.584      -3.0175
       142.73       97.741      -6.3023
       146.33       74.859      -9.5754
       18.078        35.12      -5.0697
       114.66       56.604       -7.142
       123.75       90.794      -5.0086
       31.393       11.894      -6.2095
       58.111       32.609       -4.459
       24.811       17.426      -4.9958
       19.807       30.635       -4.808
       147.28       99.741      -6.5059
       129.35       60.381      -7.9712
       133.81        62.12      -8.4347
       29.312       56.127      -3.5999
        119.2       58.177      -7.1327
       103.94       52.586      -7.1268
       91.059       42.229      -5.1794
       68.422        71.48      -2.8036
       145.27       70.076      -9.3162
       161.81       77.047      -9.1882
       108.28       85.727      -3.8461
       183.08       85.899      -8.1256
       57.392       67.804      -1.9262
       37.385       13.501      -5.0007
       174.56       103.57      -10.883
       180.66       88.607      -9.7356
       101.61       83.298        -3.33
       14.748       46.988      -2.5158
       122.99       57.365      -7.3218
       42.813       21.806      -1.9284
        172.2       82.186      -9.3928
       29.559       60.098      -4.2343
        48.31        63.25      -2.0497
       41.166       15.755      -3.5633
       48.244        24.27      -1.5441
        123.6       95.829      -3.0695
       62.784       74.396      -1.3116
        173.9       111.81      -7.3464
       35.168       62.019       -4.401
       162.53       106.63      -6.8609
       85.189       42.343      -5.9563
       167.69       106.91      -8.1079
       55.275       61.848      -3.4068
       79.276       45.136      -6.6093
       73.674       41.091       -6.018
       71.611        39.36      -5.4891
       70.224       69.959       -3.872
       56.671       34.508      -4.6344
       121.33       87.429      -6.2365
        117.4       59.713      -6.9903
       78.403       71.811      -4.7316
        108.5       56.127      -7.0813
       96.988       76.063      -5.8971
       99.802       53.261      -7.1086
       102.17        54.15      -7.2378
       97.017       51.584      -6.9742
       20.423       34.705      -5.0455
       114.44       83.992      -6.4621
       42.955       25.727      -2.0295
       85.814       73.336      -5.1493
       149.11       98.247      -7.9007
       151.45       99.229      -7.9115
         69.7       37.479      -5.0761
       144.08       73.975      -9.6843
       22.676       46.494      -2.7244
       129.85       62.709      -8.3057
       94.855       49.398      -7.1449
       173.18       85.982      -10.622
       153.58       80.419      -9.9902
       35.572       14.997      -4.5425
       92.956       76.462      -4.7598
       140.16       67.524      -9.3378
       27.195       50.112      -2.3524
       163.39       102.92      -8.9944
       83.383       45.702      -6.9887
       38.896       18.557      -2.9002
       42.485       57.567      -4.1724
       102.04       81.004      -4.5265
       27.163       17.245      -4.7314
       50.081       61.773      -2.5633
       49.987       30.862       -3.048
       18.909       39.065      -4.5638
        129.5       93.496      -5.0908
        169.7       104.22       -9.638
       31.408       14.561      -5.2637
       25.614       21.215      -3.5259
       136.03       91.553       -7.826
       144.74       96.382      -7.6584
       89.229       45.658      -6.9605
       66.269       70.517      -2.7249
       125.87       91.878      -4.9463
       172.84       102.01      -11.027
       141.09       92.733       -8.471
       89.078       77.033      -3.6572
       46.926       27.957      -2.2818
       37.367       57.523      -4.6143
       24.377        49.99      -2.0363
       122.96       59.671      -7.0708
       99.453       79.307      -4.6923
       16.899       43.726      -3.4648
        30.24       53.946      -3.3533
       63.195       69.224      -2.5043
       62.934       33.809      -4.5636
       177.96       88.727      -10.454
       157.99       80.078      -9.8978
        47.95       60.954      -2.7128
       68.637       33.385      -4.4558
       150.98       79.155      -9.6334
       165.98       79.041      -9.3788
       24.063       25.807      -3.4303
       117.22       87.506      -5.1812
       174.66       97.265      -12.035
       117.39        90.07      -3.8956
       127.37       61.734      -7.4073
       157.92       104.21      -6.8412
       30.668         58.2      -4.1536
       146.68       77.178      -9.8889
       134.16       64.439       -9.296
       112.49       55.637      -7.1651
       135.71       60.707      -7.5538
       77.818       41.409      -6.1404
       107.75       83.535      -4.6791
       23.843       19.378      -4.3965
       162.01       79.215      -10.071
       59.288       66.519      -2.7975
       110.12       84.565      -4.9533
       106.03       53.256      -7.3168
       176.48       93.052       -11.82
       153.68        102.6      -6.6791
       81.372       74.686      -3.5389
       16.942       36.809        -4.89
       34.331       60.312      -4.6059
       85.315       44.184      -6.7103
       161.95       104.87      -7.6283
       173.65       105.34      -10.052
       28.943        61.94      -4.3126
       43.611       59.987      -3.3351
        13.42       45.771      -2.8435
       72.375        73.22      -2.9135
       181.32       86.863      -8.8828
        125.5       94.335      -3.8491
       94.331       46.251      -6.8439
       177.29       85.119      -9.2756
       52.891       30.365      -3.0885
       64.768        72.63      -1.6793
       29.543        49.76      -2.8073
       41.199       55.559      -4.5538
       69.215       39.884      -5.1022
       134.41       66.791      -9.6499
       71.322       41.799        -6.14
       107.58       81.198      -6.1124
       125.42         63.1      -7.1207
       127.86       64.134      -7.8806
       31.072       51.685      -3.2037
       94.475       51.935      -7.0985
       100.26       55.628      -7.0956
       49.753       59.446      -3.2593
       25.411       27.787      -3.6818
        97.35       54.182      -6.9777
       173.19       95.396      -12.174
       26.382       25.207      -3.0127
       151.08       96.844      -8.9451
       101.87       78.437      -5.8743
       137.75       89.904      -8.8276
       38.302       20.857      -2.3333
       123.19       62.058      -6.9534
        61.53       65.808      -3.4057
       149.02       80.495      -9.8153
       151.38       81.635      -9.7774
       140.11       90.454       -9.174
       59.473       64.175      -3.6911
       165.24       101.43      -9.9058
       125.74       89.506      -6.1578
       157.61       101.86      -8.0994
       47.254       58.699      -3.2164
       174.15       93.164      -12.038
       61.317       35.545      -4.1327
       109.76       82.166        -6.12
       112.74       57.997      -7.2242
       65.528       67.977      -3.4591
       155.38       101.01      -8.0064
       171.37       100.03      -11.373
        20.28       41.011      -4.2393
       82.486       72.644      -4.8545
       87.235       46.942      -7.1803
       73.735       71.381      -3.9876
       133.46       91.124       -7.344
       32.892       57.508       -4.433
       143.42       93.182      -8.8202
       40.515       22.696      -1.8743
       170.09       83.524      -10.271
       53.267        60.58      -3.2932
       88.192       73.899      -5.1971
        142.9       69.866      -9.6243
       92.549       47.637      -7.1461
       119.63       60.509      -6.9772
        65.29       34.295      -4.4869
       25.875       47.998       -2.481
       160.44       80.928      -10.021
       155.71       81.527      -9.8434
       116.91        85.12      -6.3954
       76.027       71.491      -4.4283
       75.754       42.538      -6.6346
       44.356       27.641      -2.3408
        47.67       30.354      -2.9258
       29.724       16.339      -4.7437
       67.951       35.748      -4.4942
       81.154       46.695      -6.5125
       164.05       80.352        -10.1
       19.306       43.268      -3.5484
       22.207       30.319      -4.5244
       104.36       54.854      -7.0815
       144.45       76.333      -9.5891
       167.66       104.79      -9.0924
       123.47        88.44      -6.1439
       115.17       58.911      -7.1337
       21.238         32.5      -4.8507
       146.94        97.28      -7.7542
        54.35       34.228      -4.4585
          132       63.575       -8.838
        99.11       77.008      -5.8304
       19.596       36.861      -4.8893
        94.87       75.231       -5.798
       119.26       86.524      -6.2082
       67.167       31.612      -4.4786
       110.62       56.861      -7.0279
       90.933       78.144      -3.3166
       58.898       34.702      -4.4891
       138.37       66.186      -9.1738
       33.563       14.079       -5.295
       57.067       63.091      -3.5964
       26.125       19.127       -4.141
       90.921        44.29      -6.2165
       106.67       55.204      -7.2001
       39.363       16.615       -3.461
       131.58       93.796      -5.3294
       167.95       79.594      -9.0979
       51.613       31.628      -3.3578
       172.49       103.86      -10.377
       121.17       58.696      -6.8933
       103.83       81.894      -4.7199
       127.62       92.833      -4.8756
       173.33       108.46      -8.7845
       57.342       60.782      -3.6404
       78.903       47.496      -6.3097
       55.264       36.407       -4.193
       55.368       59.477      -3.4375
       77.489       69.615      -5.6174
       31.916       49.445      -3.2814
        61.78       63.383       -4.459
       121.12       85.094      -7.2537
       123.28       86.077      -7.3723
       49.092       57.104      -3.4106
       108.89       58.435      -7.0982
       117.82       62.047      -7.0753
       68.886       42.362      -4.8558
       115.59       61.245      -7.1681
        109.5       79.804      -6.8778
       22.758       34.315      -4.9022
       125.48       87.113      -7.4696
       123.44        64.44      -7.0602
       113.23       60.377      -7.2193
       87.477       71.618      -6.3386
       125.84       65.509      -7.2393
       98.885       74.659      -6.9208
       116.53       82.687      -7.0478
       41.997       27.898      -2.5436
        96.68       73.735      -6.7274
       157.23       99.513      -9.1684
       101.44       75.898      -6.8963
       84.568       70.978      -6.1919
       49.924       33.103      -3.7451
       57.606       36.652      -3.8324
       142.24       75.473      -9.7215
        74.98       69.384      -5.2407
       97.891       56.745        -7.09
       27.819       27.221      -3.1815
       171.78       93.465      -12.147
       38.095       23.357      -1.9236
        139.4       88.178      -9.7612
       106.66         57.5      -7.1836
       149.31       82.916      -9.4463
       21.928       36.519       -4.914
       144.84       78.677      -9.6161
       27.865       20.659      -3.4383
       163.02       100.58      -9.8545
       43.572       55.455      -3.7443
       83.104       48.076      -7.0214
       129.25       91.227      -6.0773
       138.03       68.498      -9.6983
       65.635       36.825      -4.0169
       92.802       74.119      -6.0023
       36.609       19.193      -2.8795
       146.62       94.929      -8.8504
       32.058       16.863      -4.3671
       32.584       53.525      -3.8941
       167.39       81.857      -10.246
       153.29       97.722      -9.1726
       175.65       89.279      -11.136
        21.68       42.953      -3.7265
        160.8       102.93      -8.3614
       89.344       48.028      -6.8462
       168.13       102.53      -10.029
       158.54       82.444      -9.6239
       51.915        33.85       -4.074
        73.09       43.412      -6.4685
       135.47       89.244      -8.7578
       142.65        90.94      -9.5238
       92.633       50.363       -6.983
       153.69       82.795      -9.6405
       102.64       56.458      -7.0217
       130.16       65.047       -8.578
       103.86       79.597       -5.808
       112.34       82.796      -6.4283
       172.07       97.737      -11.938
       67.871       68.672      -3.7944
       148.88       95.847      -8.8568
       38.814       55.626      -4.6839
       45.076       58.333      -3.5396
       90.612       74.907      -5.0838
       132.35       65.821      -9.0647
       45.403       29.743      -2.8366
       170.91        102.6      -10.581
       26.991        23.02      -2.9548
       24.427       29.834      -4.2218
        35.13       57.469      -4.6078
       31.506       55.772      -3.9774
       28.091       48.083      -2.6639
       77.632       43.678       -6.755
       63.488       66.968       -3.508
       153.37       100.21      -7.8905
       143.78       71.838       -9.531
       33.348       11.789      -5.9817
       80.475       72.078      -4.9097
       171.83       84.504      -10.326
       85.345        46.21      -7.1793
       41.989       24.007      -1.8558
       121.53       61.017       -7.035
       23.963        47.91      -2.3013
       71.891        70.89      -3.8449
       65.744       30.392      -4.4196
       51.384       60.402      -3.1483
       162.31        81.07      -10.318
       141.82       68.352      -9.3845
       27.613       15.476      -5.3408
       66.838        33.38      -4.4382
       143.66       94.955      -8.1215
       95.924       53.045      -7.2422
       50.199         35.4      -4.3755
        132.5       68.164      -9.3152
       56.222       38.573      -3.6884
        92.22       52.711      -7.0844
       42.296       53.454      -4.2305
       125.26       84.736      -8.4491
       57.488       58.415      -3.5218
       76.422       67.454      -5.9082
       24.265       36.141      -4.8675
       116.01        63.58      -7.0448
        113.7       62.739      -6.9594
       106.98       59.861      -6.9952
       86.464       69.292       -7.091
        123.8       66.851      -6.9734
       98.577       72.302      -7.2427
       101.06        73.43      -7.0959
       152.94       95.373      -9.5783
       167.66       84.439      -10.923
       67.284       66.354      -4.7571
       148.52       93.484      -9.5023
       164.86       99.086      -10.775
       70.034       67.513      -4.8309
       27.062       45.988      -2.9191
       29.354       22.553      -2.8322
       46.001       32.032      -3.3812
       87.349       49.312      -7.1221
       133.06       88.684      -8.4461
       169.75       98.283      -11.727
       144.98       91.388        -9.63
       141.47       71.686      -9.7632
       52.519       58.446      -3.5078
       163.97        82.61      -10.881
       22.646       40.781      -4.2364
       67.014       40.853        -4.19
       147.12        81.95      -9.5903
       161.22       83.048      -10.221
       100.77       57.983      -7.0671
       107.33       78.838      -6.8338
       127.65       88.086      -7.4241
       91.011        72.58      -6.4851
       167.41       100.06      -10.818
       172.71       91.276       -11.99
        155.8       83.899      -9.6708
       75.627       44.864      -6.9108
        103.9       77.243      -6.8619
       36.015        21.49      -2.2842
       30.442       18.606      -3.8894
       46.506        56.49      -3.3528
        26.77       29.701      -3.9237
       159.45       100.35      -9.2874
       82.037       70.383        -6.06
       121.27        63.28      -7.0857
        40.68       25.872      -2.0778
       36.298       55.442      -4.6414
       70.821       44.123      -5.8158
       59.959       61.836      -3.9871
       128.01        66.52      -8.0759
       80.942       49.062      -6.6374
       118.75       83.586      -7.2154
       151.42       84.024      -9.7995
       30.451       47.507      -3.0319
       52.913       36.112      -4.5375
       176.47       87.136      -10.256
       23.769        32.14      -4.6763
       170.77       95.678      -12.084
       33.975        55.42      -4.3305
       141.77       88.684      -9.7989
       142.59       77.846      -9.7883
       33.424       51.293      -3.6983
       79.691       69.986      -5.8242
       110.97       59.605      -7.0753
        114.4       81.612      -6.9867
       37.269       17.138      -3.5491
       67.486       38.284      -4.4553
       137.16       87.686      -9.5638
       146.98       79.466      -9.6425
       63.534       35.989      -4.0331
       155.06       98.906      -9.0274
       20.882       45.266      -3.0307
       111.46       80.787      -6.9971
       175.23       91.385      -11.713
       94.663       73.137      -6.8366
       145.13       93.853      -8.8612
       104.67        56.91      -7.1777
       43.359       29.449      -2.8681
       33.878       16.048      -4.4104
       105.64       80.568      -5.7932
       136.33         67.4      -9.6762
       59.603       36.571      -4.0252
       91.023       46.422      -7.0463
       127.38       90.606      -6.0073
       130.75       92.206      -6.0629
       165.82       80.881      -10.099
       48.536       31.943      -3.2976
       32.822       47.237      -3.3384
       41.134       30.029      -3.0697
         62.2       61.044      -3.9697
       78.671       49.908      -6.3492
       66.661       43.207      -4.2114
       140.38       76.961      -9.4158
       69.456        65.04      -5.0952
       48.274       54.798      -3.3941
        111.4       78.459      -7.0458
       109.25       77.445      -7.0482
       116.39       80.317        -6.97
       114.15        65.09      -7.2225
       51.035       37.743      -4.0162
       113.48       79.221      -7.1659
       39.617       28.005      -2.6437
       29.187       29.261      -3.6272
       169.41       93.715      -12.235
       100.67       70.996      -7.1208
       98.521       59.252      -7.0077
       159.06       98.009      -10.217
       81.207       68.159      -6.8677
       138.72       85.925      -9.7583
       141.01       86.422      -9.7089
          143       80.189      -9.5088
       162.92       84.858      -10.877
       35.683       23.952      -2.0428
       121.03       82.606       -7.557
       82.875       50.438      -6.8603
       149.41        85.29       -9.737
        156.7       97.231      -9.9494
       37.706       53.485      -4.5853
       136.07       69.674      -9.7074
       170.99       86.625      -11.145
       44.666       53.349      -3.4791
       162.65       98.238      -10.639
       63.826       38.316      -3.6139
       159.43        84.75      -9.8777
       95.355       55.219      -7.0984
       168.35       96.234       -11.95
       88.855       69.635      -7.0934
       55.508       57.109      -3.4631
        24.04       42.702      -3.7215
       72.569       45.728      -6.1891
       74.055       67.189      -5.4339
       61.515       37.821      -3.5216
       47.912       34.099      -4.0087
       32.756       19.131      -3.2582
       118.24       64.382      -7.2409
       90.403       51.181      -7.0884
       103.28       74.353      -7.1098
       103.21        58.69      -6.8808
       58.687       38.664      -3.5535
       121.59       65.954      -7.0863
       84.151         68.6      -7.0076
       96.256       71.466      -7.0603
       131.15        89.95      -7.3727
       153.79       85.166      -9.6053
       140.04       69.848      -9.6907
       134.92       86.955      -9.4285
       72.086       68.583      -4.9219
       35.156       53.377      -4.3056
       24.822       45.836      -2.9192
        144.2       89.146      -9.6675
       126.05       67.876      -7.4645
        23.44       38.456      -4.6279
       28.842       24.971      -2.6893
       53.827       38.338      -3.6823
       150.76       94.353      -9.6211
       111.43        61.96      -7.1731
        127.4       85.731      -8.4705
       130.22       67.442       -8.706
       24.973       34.022      -4.7942
        63.46       64.782      -4.4066
       59.293       59.714      -3.4303
       85.658       48.206      -7.0497
       109.03       60.619      -6.9576
       44.136       31.297       -3.219
       92.946       72.138       -6.827
       77.374       46.044      -6.5046
       174.46       87.594      -10.828
       25.693       31.442      -4.3835
       165.78       82.695      -10.676
        169.4       100.82      -10.852
       29.911       20.583      -3.1635
       146.77       93.152      -9.4128
       105.49       78.727      -6.6849
       128.79       89.485      -6.9603
       142.17       73.514      -9.6776
       28.924       46.373      -3.0715
       174.03        90.05      -11.567
       37.666        15.33      -4.2605
       27.891       18.874      -4.0759
       119.65       62.367      -7.0157
       89.179       72.337      -6.3548
       50.757       57.899      -3.5356
       39.662       24.333      -1.9687
       161.19       101.08      -9.3685
        43.39       51.349      -3.9531
       26.568       35.732      -4.7651
        59.59       57.397      -3.4411
       54.824         40.5      -3.5255
       57.378       40.672      -3.4813
       127.19       83.369      -9.3256
       75.467        65.28      -5.8336
       57.629       56.047      -3.5049
       85.896       66.978      -7.1094
       89.988       53.518       -6.894
       41.835       32.555      -3.5949
       82.984       66.348      -7.1495
       130.74       69.762      -9.0606
       52.003        40.05      -3.5812
       61.601       58.511      -3.6605
       124.08       69.233      -7.1365
       113.15       76.911      -6.9904
       107.29       62.168      -7.1837
       25.788       37.989      -4.6617
       115.66       77.847      -6.8967
       38.732       30.249      -3.2176
       158.52       95.668      -10.747
       70.306       46.439      -5.2733
        28.41       44.169      -3.3887
       161.11       86.857      -10.685
       152.72       93.003      -9.6286
       166.98       94.176      -11.622
        62.24       40.077      -3.3372
       150.39       92.003       -9.699
       94.192       69.789      -7.1332
       27.312       33.284      -4.6094
       148.03         91.3      -9.8618
       52.248        56.21      -3.6881
       155.89        86.27      -9.5031
       146.53       89.594      -9.7192
       139.91       73.343      -9.7256
       132.59       86.316      -9.2678
        140.3       84.166      -9.8562
       67.307       63.939      -5.0261
       48.682       37.262      -4.3495
       129.82       87.492      -8.1976
        31.61       22.127      -2.6475
       96.213       58.499      -7.1248
       164.49       96.743      -11.209
       31.108       24.188      -2.3826
       106.53       76.731       -7.072
        75.35       47.157       -6.593
       30.913       45.291      -3.2644
       64.806       41.725      -3.7521
       101.42       60.309      -7.0543
       37.792       25.588      -2.0853
       36.518       51.378      -4.3589
       33.813       22.447      -2.4127
       171.97       89.159      -11.778
       98.534       69.907      -7.0209
        85.38       50.479      -7.2043
       25.006       40.535       -4.231
       119.08       81.208      -6.9988
       151.51       86.395      -9.8331
       80.717       51.424      -6.5256
        30.21       27.097      -2.8721
       102.96       71.995      -7.0651
        128.2       68.886      -8.2869
       71.746       65.809      -5.1767
       140.69        79.39      -9.5893
       116.41       65.972      -7.1377
       26.081       43.857      -3.4807
       78.845       67.602      -6.5031
       143.37       86.894      -9.6923
       68.509       44.719      -4.5668
       111.89       64.307      -6.9633
       63.891       62.555      -4.5727
       123.12       83.717      -8.1805
       170.38       91.584      -12.103
       165.33       85.071      -11.095
       34.223       49.102      -3.5574
       40.002       53.597      -4.7657
       21.195       38.911      -4.6384
       147.44       84.188       -9.707
       145.13       80.905      -9.6766
       35.243       17.621      -3.6926
       65.255       65.852      -4.3813
       136.59       85.616      -9.8107
       160.96        99.17      -10.056
       105.18       58.824      -7.0907
       166.78       97.878      -11.425
       94.225       53.762      -7.0908
       154.82       96.292      -9.6789
       23.258       44.562      -3.2214
       34.671       19.917       -2.853
       90.956       49.241      -6.9811
       65.664       39.277      -3.9414
       46.298       54.502      -3.3625
       134.36       68.737      -9.7083
       169.41         85.4      -11.025
       157.66       84.106      -9.5546
        120.1       64.775       -7.015
       35.165       46.936      -3.6122
       69.318       62.661      -4.8904
       33.334       44.825      -3.5262
       64.451       44.071      -3.5749
       78.471       52.317      -6.5693
       61.591       56.157      -3.4319
       55.964       42.636      -3.6337
       28.906       35.106      -4.6318
        53.09       42.304      -3.5685
        138.5       78.435      -9.6627
       121.25       80.236      -7.5519
        128.8       71.266      -8.8496
       84.874       64.655      -6.8892
       112.35        66.64       -6.928
       108.41       75.101        -7.08
       30.502       42.855      -3.6648
       36.817       48.781      -4.0567
        96.73       60.829      -6.9542
       115.12       75.453       -6.937
        82.65         52.8      -7.0762
       100.53       68.622      -7.0679
        45.76       51.244      -3.5904
       31.556       29.057      -3.3673
       99.264        61.71      -7.0902
       93.167        55.75      -7.0264
       134.22       71.006      -9.8409
       64.415       60.268       -4.004
       105.15       72.896      -7.1502
       55.648       54.741       -3.475
       46.301       36.166      -4.3401
       168.94       87.635      -11.494
       35.479       26.394      -2.3342
       27.361       39.865      -4.3136
       72.053       48.044      -5.8963
       119.57       66.974      -7.1886
       152.36       90.614      -9.8438
       162.27       95.895      -11.126
       129.34       84.367      -9.3271
       143.41       82.494      -9.6784
       148.82       89.088      -9.8355
       104.06       60.807        -7.15
       32.622       26.249      -2.5066
       91.521       70.356      -7.0724
       163.94       87.011      -10.947
       87.412       51.663      -6.9047
          118         78.5      -7.0349
       134.47       84.681      -9.8159
       168.03       91.794      -11.687
       153.88       87.536      -9.8309
       49.447       39.516      -3.5148
       158.66       87.085      -10.047
       109.64       63.531      -7.0488
       137.96       83.656      -9.5986
       80.497       65.881      -7.1093
       59.754        40.79      -3.6222
       38.959        51.39      -4.6647
       141.14        81.83      -9.8684
       154.77       94.011      -9.7792
       126.24       70.266      -7.8829
       142.59       84.684      -9.7441
       121.94       68.272       -7.032
       77.753       65.572      -6.5073
       138.01       70.694      -9.7526
        28.31       31.301      -4.1032
       156.54       95.204      -10.127
       111.09       76.345      -6.9945
        96.38       69.205      -7.0573
       87.911        67.71      -6.9485
       77.011       48.531      -6.6669
       50.307       55.375      -3.5833
       65.168       63.957      -4.8641
       40.075       31.683      -3.4448
       166.46       96.004      -11.615
       89.266       49.808      -6.9631
       64.068       40.092      -3.5915
       104.93       75.508      -7.1874
        73.58       65.361      -5.5099
       140.42       75.115      -9.8646
       32.912       20.908      -2.8613
       40.043        33.96      -3.8946
       37.522       46.488      -3.9076
       35.801       44.534      -3.6002
       44.484       49.244      -3.6736
       129.13       82.004      -9.6949
       76.871       63.388      -6.3348
       37.904       32.371      -3.7015
        69.79       48.755      -4.8925
       74.435       63.268      -5.6792
       79.355       63.685      -6.8352
       33.091       42.153      -3.7597
        57.77       53.679      -3.4226
       54.291       44.511      -3.5453
       124.27       71.604      -7.3741
       126.77        72.68      -8.3805
       67.987       47.063       -4.283
       104.83       70.545      -7.1738
       94.466       60.108      -6.9717
       49.851        53.11      -3.5348
       107.44       64.627      -7.1065
       94.757       67.512      -7.0059
       119.77       69.425      -7.1533
          158       93.436      -10.463
       160.08       89.017      -10.831
       110.62        73.86      -7.0205
       87.499       54.258      -6.8733
        92.43       68.063       -7.016
       138.19       74.807       -9.714
       165.63        92.16      -11.049
       97.322        63.21      -7.0815
        52.09       53.906       -3.556
       39.476       48.782      -4.6276
       101.46       62.732      -7.0675
       74.871       49.427      -6.4381
       155.98        88.64      -9.5736
       131.03       72.138      -9.6876
       47.119       39.049      -3.8363
       87.606       65.413      -7.0444
       72.175       63.589      -5.2918
       44.316       33.576         -3.8
        63.65       57.325      -3.5833
       50.696       42.069       -3.562
       61.563       42.408      -3.4512
       147.42       86.533      -9.5363
        82.12       64.095      -6.9902
       98.094       67.602      -6.9737
        67.21       61.566      -4.2694
       164.12       94.401      -11.041
       132.19       83.947      -9.6551
       138.77       80.796      -9.6155
       154.66       91.664      -9.7413
       144.91       85.105      -9.7167
       166.31       87.235      -10.842
       58.464       42.783      -3.5413
       80.492       53.785      -6.6805
       37.263       28.374      -2.8264
        47.59       52.616      -3.4711
       28.269       37.404      -4.6215
       110.09       65.871      -7.1438
       117.38         76.2      -6.7812
       125.06       82.402      -8.9506
        102.6       69.697      -7.1967
       30.534       31.049      -3.8958
       33.947       28.358      -2.9384
         27.5       42.111       -3.847
       169.04       89.836      -11.765
        136.2       71.793      -9.7569
       59.634       55.234      -3.4803
       29.381       33.082      -4.4252
       94.666       57.152      -7.1159
       161.02       97.295      -10.724
       33.702       24.499      -2.1786
       151.96         88.5      -9.8161
       91.627       54.563      -6.9703
       106.63       74.942      -6.9547
       54.104       55.838      -3.6364
        132.6       70.045      -9.5072
       136.12       83.825      -9.6079
       139.57        71.58      -9.6736
       119.59       79.434      -7.0722
        105.8       61.198       -7.049
       69.211       60.291       -4.308
       61.488       53.837      -3.4341
       38.204       44.154      -3.9504
       73.016       61.395       -5.089
       91.143       56.784      -7.0356
       75.754       61.276      -5.9253
       78.274       54.713      -6.5379
       63.634       54.954      -3.6278
       47.907       50.286       -3.597
       67.483       49.408      -4.0718
       82.425       55.161      -7.0789
       31.144       34.564      -4.4288
       121.31       77.985      -7.2444
       83.906       62.361      -6.9298
       37.748       34.815      -3.9718
        86.79       63.054      -7.1376
       78.357       61.496      -6.8436
       51.658       51.572       -3.565
       81.039       61.858      -7.1176
       40.063       46.303      -4.3593
       44.733       38.169       -4.147
       30.567       36.804      -4.5008
        60.26       44.635      -3.6074
       55.789       52.373      -3.5208
       124.71       74.029      -7.8564
        93.12       65.788      -6.9785
       134.45       73.307      -9.7713
       110.56         68.2      -6.9379
       136.59       79.854      -9.6989
        116.9       73.876      -6.9254
       102.52       67.338      -7.1077
       71.537       50.359      -5.5855
       104.48       63.007      -7.1276
       107.03       71.446      -7.0512
        161.9       93.553      -11.025
       31.259       40.521      -4.0253
       66.021        58.28      -3.6147
       107.89       67.109      -6.9666
       134.35       82.431      -9.5113
       32.873       30.991      -3.7529
       47.879       41.297      -3.6223
       100.11       66.216      -7.1204
       89.795        66.29      -6.9476
       57.093        44.76      -3.5218
       164.93       89.168      -10.846
       51.693       44.231      -3.6763
       85.361       52.846      -7.0229
       129.17       73.615      -9.1298
       117.62       68.365      -7.2029
       42.114       49.349       -4.186
       42.206       34.875      -3.9376
       121.82       70.663      -6.9665
       94.975       62.426      -7.0462
       35.595        30.42      -3.3861
       126.98       81.004      -9.5083
       112.92        74.53      -7.0682
       162.42       88.813      -11.022
       114.56       67.385      -7.1182
       137.96       72.798      -9.8497
       66.282       45.493       -3.831
       76.608        50.95      -6.6854
       123.04       81.516      -8.1743
       96.478       65.622      -6.9767
       145.46       87.402      -9.7616
       53.949       53.984      -3.5081
       154.15       89.581      -9.6655
       158.01       89.046      -9.9329
       145.36        82.88       -9.482
       149.71       87.281       -9.888
       167.82        86.23       -11.04
        150.5       90.064      -9.9041
       156.21       92.764      -10.025
       130.95       85.378      -9.2846
       46.113       33.846      -3.8328
       139.43       82.534      -9.6534
       138.58       76.601      -9.5419
       34.414        43.38      -3.6996
       35.149        41.26      -3.8147
        57.91       51.311      -3.6427
       64.106       46.405      -3.6685
       74.296       59.283       -5.649
       33.541       39.803      -4.0637
       40.687       43.884      -3.9858
       128.92       79.641      -9.6702
       92.714       61.708      -7.0404
       85.828        60.71      -7.0505
       58.758       46.751      -3.5587
       32.845       36.196       -4.362
       119.15       74.618      -6.9252
        63.51       52.573      -3.5698
        55.51       46.682      -3.6754
       136.38       76.137        -9.72
       79.972       59.641      -6.9648
       112.34       72.223      -7.1779
       91.151       64.008      -7.0322
       77.229       59.339       -6.686
       82.828       60.086      -7.1642
       40.325        36.31      -4.0641
       131.37       74.486      -9.6055
       49.329       44.011      -3.5296
       43.208       47.244      -3.9067
       74.385       51.733      -6.3241
       115.46       69.832      -7.1329
       35.776       33.462       -4.005
       119.73       71.803      -7.1309
       45.553       40.832      -3.5342
       105.65       66.239      -7.1438
       126.87       75.074      -8.7765
       132.09       81.507      -9.5751
       159.07       91.086      -10.532
       85.298       55.266       -7.227
       122.47       73.181      -7.0727
       161.43       90.961      -10.954
       123.37       79.168      -8.0398
       80.211       56.227      -6.8896
       76.285       53.343       -6.642
       69.217       51.132      -4.4901
        106.7       69.125      -7.1386
       136.87       81.901      -9.7667
        99.54        63.99      -7.0153
       107.68       73.291      -7.0433
       114.75       73.246      -7.0478
       41.176       51.535      -4.5444
       166.91       89.974      -11.114
       65.511       56.126      -3.5555
       136.34       74.005      -9.7023
       29.875       38.856      -4.3451
       44.087       36.048      -4.1723
       160.41       95.495      -11.061
       89.257       55.613      -7.0086
       92.743       58.507      -7.0854
        53.74       51.888      -3.6339
       70.952         61.4      -4.7358
       62.358       44.368      -3.6708
       31.745        32.65      -4.1125
       49.717       51.121      -3.5776
       59.647       53.322      -3.3658
       67.391       59.643      -3.8704
       90.553       68.646      -7.0393
       132.88       72.298      -9.8682
       46.273        49.51      -3.5362
       73.091        49.49       -6.089
       94.739       64.489      -7.1047
        68.99       58.031      -3.9809
       51.152       49.345      -3.6017
       74.007       54.106      -6.1121
       39.224       41.976      -3.9033
       71.026       52.695      -5.2049
       90.437       59.044      -7.0577
       35.725       39.009      -4.0415
        50.32       46.167      -3.4845
       88.209       61.102      -7.1611
       43.179       40.104      -3.8157
       38.005       37.339      -4.1444
       46.313       43.079      -3.7156
       60.334       50.974      -3.5496
       76.114        55.72      -6.6042
       71.185       59.113       -4.546
       55.238       50.131      -3.6581
       126.77       78.641      -9.2817
       66.901       51.727      -3.8751
        45.68       47.345      -3.6621
       129.52       75.962      -9.5973
       109.29       71.688      -7.1013
       124.89         76.4      -8.1626
       53.109       46.602      -3.5257
       61.568        46.54      -3.5935
       133.99       80.067      -9.6971
       84.746       58.387      -7.1023
       113.08       69.321      -7.1363
       156.52       90.678      -9.7726
       87.186        56.48      -6.9794
       133.68       75.904       -9.682
       104.59       68.283      -7.1981
       33.174        34.15      -4.1967
        65.86       47.832      -3.8408
       117.64       70.718       -7.047
       102.14       65.001      -6.9721
       31.946       38.411       -4.282
       119.49       76.778      -6.8371
       88.949       63.628      -7.0269
       29.204        40.82      -4.0866
       36.734       42.646       -3.713
       163.45       90.593      -11.035
       42.012       45.516      -3.9732
       125.04       80.354      -8.9961
       92.983        63.96      -7.1024
       159.97       92.914      -10.945
       98.365       65.474       -7.054
       136.68       77.984      -9.4753
       130.43       80.697      -9.6365
       83.902        54.11      -7.0378
       120.62       73.452      -7.0721
       63.686       48.712      -3.5931
       70.996       56.729      -4.6918
       42.944       43.405      -3.7784
       130.85       78.485      -9.8696
       39.998       38.702      -4.0446
       47.972       48.042      -3.5889
       121.84        75.35      -6.9234
       44.299       45.211      -3.7571
         35.6       35.833      -4.1832
       68.779       53.469      -4.1673
       42.445       37.707      -4.2117
       47.957       45.947      -3.6941
       65.684       53.762      -3.5994
       82.209       57.545      -6.9983
       90.392       61.834      -7.0519
       87.354       58.867      -6.9505
       58.841       49.125      -3.4921
       78.034       57.017      -6.6952
       41.526       41.726      -3.8343
       37.149       40.572      -3.9552
       131.61       76.689       -9.739
       134.92       77.324      -9.7462
       53.167       49.883      -3.4913
       67.393       56.818      -3.7021
       111.11       70.362      -6.9716
        108.7       68.948      -7.2168
       128.52       77.688      -9.6403
       116.26       72.059      -7.2147
       163.56       92.536      -11.018
       103.78       65.934      -6.9472
       41.379       47.631      -4.2892
        34.12       32.466      -3.8667
        130.6       83.063      -9.7173
       72.846       52.704      -5.5898
       105.63       64.417      -7.0835
        61.78       52.055      -3.6263
       73.811       56.544      -5.8232
       71.926       54.648      -5.2052
       62.151       50.051      -3.5158
       132.92       78.296      -9.8079
       65.391       50.115      -3.7517
       54.404        48.33       -3.658
       57.107       47.998      -3.6642
        34.06       37.832      -4.2699
       88.856       57.562      -7.0783
       114.54       71.421      -7.0478
       118.01       72.471      -7.1405
       66.976       55.045      -3.8383
       123.12       77.227      -7.6211
       126.94        76.86         -9.1
       83.815       56.489      -7.2814
       44.549       42.423      -3.5668
       49.352       49.205      -3.5235
       41.366       39.909      -3.9965
       79.585       57.899      -6.8665
       91.898         60.1      -6.9948
       46.137       45.535      -3.6962
       38.242       39.132      -4.0074
       51.533       47.547      -3.5386
       68.973        55.51      -4.0856
       75.508       57.656      -6.2235
       61.956       48.279      -3.6774
       72.481        57.81      -5.1189
       124.97       78.245      -8.4428
       56.989        49.78       -3.587
       60.246       47.748      -3.7018